------------------------------------------------------------------------
r1004250 | amantia | 2009-07-29 18:01:31 +0000 (Wed, 29 Jul 2009) | 2 lines

Backport r1004248: use the right mimetype

------------------------------------------------------------------------
r1004268 | djarvie | 2009-07-29 18:31:07 +0000 (Wed, 29 Jul 2009) | 3 lines

Command line options: validate better, and remove unnecessary restrictions.
Backport of commit 991759.

------------------------------------------------------------------------
r1004271 | djarvie | 2009-07-29 18:39:24 +0000 (Wed, 29 Jul 2009) | 2 lines

Make shift-delete delete without confirmation prompt

------------------------------------------------------------------------
r1004272 | djarvie | 2009-07-29 18:45:14 +0000 (Wed, 29 Jul 2009) | 2 lines

"Font & Color" -> "Font && Color" to fix ampersand not being displayed

------------------------------------------------------------------------
r1004449 | osterfeld | 2009-07-30 08:08:03 +0000 (Thu, 30 Jul 2009) | 1 line

link
------------------------------------------------------------------------
r1005077 | tmcguire | 2009-07-31 10:10:16 +0000 (Fri, 31 Jul 2009) | 6 lines

Backport r1002191 by jtamate from trunk to the 4.3 branch:

Fixes a memory leak of 5,956,964 (72 direct, 5,956,892 indirect) bytes.
tested with valgrind.


------------------------------------------------------------------------
r1005078 | tmcguire | 2009-07-31 10:11:17 +0000 (Fri, 31 Jul 2009) | 11 lines

Backport r1002770 by tmcguire from trunk to the 4.3 branch:

Also support multipart/alternative with text/plain and multipart/related as children, instead
of the usual text/plain and text/html.

This fixes that the content of some Newsletters with images was rendered twice, bot the HTML and
the plain text part was shown.

CCBUG: 187989


------------------------------------------------------------------------
r1005081 | tmcguire | 2009-07-31 10:17:17 +0000 (Fri, 31 Jul 2009) | 7 lines

Backport r1004266 by tmcguire from trunk to the 4.3 branch:

Also support cc, body and subject when passing mailto urls on the command line.

CCMAIL: l.lunak@kde.org


------------------------------------------------------------------------
r1005085 | tmcguire | 2009-07-31 10:18:35 +0000 (Fri, 31 Jul 2009) | 23 lines

Backport r1004667 by tmcguire from trunk to the 4.3 branch:

SVN_MERGE
Merged revisions 1001019 via svnmerge from 
svn+ssh://tmcguire@svn.kde.org/home/kde/branches/kdepim/enterprise4/kdepim

................
  r1001019 | winterz | 2009-07-22 15:14:18 +0200 (Wed, 22 Jul 2009) | 12 lines
  
  Merged revisions 1000952 via svnmerge from 
  https://svn.kde.org/home/kde/branches/kdepim/enterprise/kdepim
  
  ........
    r1000952 | vkrause | 2009-07-22 07:33:21 -0400 (Wed, 22 Jul 2009) | 5 lines
    
    Also write Kolab properties of default groupware folders.
    
    Kolab issue 3734
    MERGE: e4, trunk, 4.3
  ........
................


------------------------------------------------------------------------
r1005087 | tmcguire | 2009-07-31 10:19:55 +0000 (Fri, 31 Jul 2009) | 22 lines

Backport r1004680 by tmcguire from trunk to the 4.3 branch:

SVN_MERGE
Merged revisions 1001528 via svnmerge from 
svn+ssh://tmcguire@svn.kde.org/home/kde/branches/kdepim/enterprise4/kdepim

................
  r1001528 | tmcguire | 2009-07-23 17:05:09 +0200 (Thu, 23 Jul 2009) | 11 lines
  
  Merged revisions 1001524 via svnmerge from 
  svn+ssh://tmcguire@svn.kde.org/home/kde/branches/kdepim/enterprise/kdepim
  
  ........
    r1001524 | tmcguire | 2009-07-23 17:00:24 +0200 (Thu, 23 Jul 2009) | 4 lines
    
    By default, don't disable the check for too many recepients.
    
    Fixes kolab/issue3718.
  ........
................


------------------------------------------------------------------------
r1005088 | tmcguire | 2009-07-31 10:20:54 +0000 (Fri, 31 Jul 2009) | 34 lines

Backport r1004681 by tmcguire from trunk to the 4.3 branch:

SVN_MERGE
Merged revisions 1001563,1004554 via svnmerge from 
svn+ssh://tmcguire@svn.kde.org/home/kde/branches/kdepim/enterprise4/kdepim

................
  r1001563 | tmcguire | 2009-07-23 18:33:11 +0200 (Thu, 23 Jul 2009) | 10 lines
  
  Merged revisions 1001562 via svnmerge from 
  svn+ssh://tmcguire@svn.kde.org/home/kde/branches/kdepim/enterprise/kdepim
  
  ........
    r1001562 | tmcguire | 2009-07-23 18:28:14 +0200 (Thu, 23 Jul 2009) | 3 lines
    
    Don't show a folder content type combo box for online IMAP folders, because that is not supported.
    Fixes kolab/issue3742
  ........
................
  r1004554 | winterz | 2009-07-30 15:29:00 +0200 (Thu, 30 Jul 2009) | 11 lines
  
  Merged revisions 1004535 via svnmerge from 
  https://svn.kde.org/home/kde/branches/kdepim/enterprise/kdepim
  
  ........
    r1004535 | tmcguire | 2009-07-30 08:51:43 -0400 (Thu, 30 Jul 2009) | 4 lines
    
    Fix silly crash when creating a folder.
    
    kolab/issue3777
  ........
................


------------------------------------------------------------------------
r1005089 | tmcguire | 2009-07-31 10:21:52 +0000 (Fri, 31 Jul 2009) | 4 lines

Backport r1003213 by stefanek from trunk to the 4.3 branch:

Fix a problem with the sort indicator not properly restored after a folder change.

------------------------------------------------------------------------
r1005090 | tmcguire | 2009-07-31 10:23:36 +0000 (Fri, 31 Jul 2009) | 24 lines

Backport r1004666 by tmcguire from trunk to the 4.3 branch:

SVN_MERGE
Merged revisions 1001006 via svnmerge from 
svn+ssh://tmcguire@svn.kde.org/home/kde/branches/kdepim/enterprise4/kdepim

................
  r1001006 | winterz | 2009-07-22 15:02:04 +0200 (Wed, 22 Jul 2009) | 13 lines
  
  Merged revisions 1000899 via svnmerge from 
  https://svn.kde.org/home/kde/branches/kdepim/enterprise/kdepim
  
  ........
    r1000899 | vkrause | 2009-07-22 05:44:38 -0400 (Wed, 22 Jul 2009) | 6 lines
    
    Also recognize invitation attachments marked as text/x-vcalendar instead
    of text/calendar.
    
    Kolab issue 3744
    MERGE: e4, trunk, 4.3
  ........
................


------------------------------------------------------------------------
r1005094 | tmcguire | 2009-07-31 10:29:12 +0000 (Fri, 31 Jul 2009) | 23 lines

Backport r1004665 by tmcguire from trunk to the 4.3 branch:

SVN_MERGE
Merged revisions 1000998 via svnmerge from 
svn+ssh://tmcguire@svn.kde.org/home/kde/branches/kdepim/enterprise4/kdepim

................
  r1000998 | winterz | 2009-07-22 14:49:03 +0200 (Wed, 22 Jul 2009) | 12 lines
  
  Merged revisions 1000859 via svnmerge from 
  https://svn.kde.org/home/kde/branches/kdepim/enterprise/kdepim
  
  ........
    r1000859 | vkrause | 2009-07-22 04:43:06 -0400 (Wed, 22 Jul 2009) | 5 lines
    
    Allow to edit the organizer field if it is empty.
    
    Kolab issue 3771
    MERGE: e4, trunk, 4.3
  ........
................


------------------------------------------------------------------------
r1005095 | tmcguire | 2009-07-31 10:31:46 +0000 (Fri, 31 Jul 2009) | 5 lines

Backport r1004525 by tmcguire from trunk to the 4.3 branch:

Use better icons for "More" and "Fewer", as suggested by Nuno.


------------------------------------------------------------------------
r1005313 | osterfeld | 2009-07-31 19:19:26 +0000 (Fri, 31 Jul 2009) | 6 lines

- Move zoom action into tabwidget and send zoom in/out signals to all tabs. I didn't find out how to tell a readonly part to zoom, so I casted it to khtmlpart (if the part is khtml). Could be extended for other types.
- Tabs load/save zoom factor
- Add zoom in/out entries in popup menu for tabs.
- Remove dead code (scroll up/down)

Patch by Alexander Elbs plus some minor changes from me
------------------------------------------------------------------------
r1005607 | djarvie | 2009-08-01 13:13:56 +0000 (Sat, 01 Aug 2009) | 1 line

Remove unused forward declaration
------------------------------------------------------------------------
r1005723 | djarvie | 2009-08-01 22:46:59 +0000 (Sat, 01 Aug 2009) | 2 lines

Set compiler definition KMAIL_SUPPORTED to fix KMail dependent functions never being compiled.

------------------------------------------------------------------------
r1005876 | mikearthur | 2009-08-02 12:47:42 +0000 (Sun, 02 Aug 2009) | 2 lines

Include Webkit to fix compilation on Nokia Qt OSX SDK.

------------------------------------------------------------------------
r1006055 | winterz | 2009-08-02 22:24:47 +0000 (Sun, 02 Aug 2009) | 6 lines

Backport r1006054 by winterz from trunk to the 4.3 branch:

don't show the Advanced reminder button unless reminders are checked-on
MERGE: e4,4.3.1


------------------------------------------------------------------------
r1006072 | winterz | 2009-08-02 23:12:06 +0000 (Sun, 02 Aug 2009) | 7 lines

Backport r1006071 by winterz from trunk to the 4.3 branch:

put the initial focus on the time interval spinbox
CCBUG: 143197
MERGE: e4,4.3.1


------------------------------------------------------------------------
r1006445 | mkoller | 2009-08-03 19:07:25 +0000 (Mon, 03 Aug 2009) | 2 lines

Backport for  bug 169092

------------------------------------------------------------------------
r1006454 | mkoller | 2009-08-03 19:22:12 +0000 (Mon, 03 Aug 2009) | 4 lines

make sure the changed file is known to be modified to not lose
the change when the composer is closed.
Backport from trunk

------------------------------------------------------------------------
r1006460 | mkoller | 2009-08-03 19:39:48 +0000 (Mon, 03 Aug 2009) | 2 lines

Backport: do not launch the external editor on modifier keypress alone

------------------------------------------------------------------------
r1006617 | scripty | 2009-08-04 03:05:34 +0000 (Tue, 04 Aug 2009) | 1 line

SVN_SILENT made messages (.desktop file)
------------------------------------------------------------------------
r1006762 | mkoller | 2009-08-04 10:39:33 +0000 (Tue, 04 Aug 2009) | 2 lines

backport: avoid URL encoding of external editor argument %f

------------------------------------------------------------------------
r1006790 | mkoller | 2009-08-04 12:22:59 +0000 (Tue, 04 Aug 2009) | 7 lines

backport BUG: 136407

make sure to find the real mail address part when adding the defaultdomain
-- Diese und die folgenden Zeilen werden ignoriert --

M    stringutil.cpp

------------------------------------------------------------------------
r1007040 | djarvie | 2009-08-04 23:58:59 +0000 (Tue, 04 Aug 2009) | 1 line

Update
------------------------------------------------------------------------
r1007439 | lueck | 2009-08-05 19:10:52 +0000 (Wed, 05 Aug 2009) | 1 line

the dialog Serverside Subscription needs this catalog to be fully translated
------------------------------------------------------------------------
r1007463 | tmcguire | 2009-08-05 19:45:30 +0000 (Wed, 05 Aug 2009) | 6 lines

Backport r1005161 by mkoller from trunk to the 4.3 branch:

CCBUG: 137643
make sure HTML mail body does not overlap with "Note" above about HTML mail


------------------------------------------------------------------------
r1007465 | tmcguire | 2009-08-05 19:46:44 +0000 (Wed, 05 Aug 2009) | 8 lines

Backport r1005418 by mkoller from trunk to the 4.3 branch:

CCBUG: 51410

Activate signing if switching from an identity without key to an
identity with key and auto-sign option is set,


------------------------------------------------------------------------
r1007467 | tmcguire | 2009-08-05 19:47:28 +0000 (Wed, 05 Aug 2009) | 8 lines

Backport r1005635 by mkoller from trunk to the 4.3 branch:

CCBUG: 52223

escape subject text when generating the tooltip to avoid
using/executing HTML code existing in the subject text


------------------------------------------------------------------------
r1007468 | tmcguire | 2009-08-05 19:48:19 +0000 (Wed, 05 Aug 2009) | 8 lines

Backport r1005664 by mkoller from trunk to the 4.3 branch:

CCBUG: 55021

add quote string _after_ lines have been wrapped, which avoids
that our own special quote-string is somewhere inside the then wrapped lines


------------------------------------------------------------------------
r1007470 | tmcguire | 2009-08-05 19:49:38 +0000 (Wed, 05 Aug 2009) | 8 lines

Backport r1005697 by mkoller from trunk to the 4.3 branch:

CCBUG: 87549

Set focus on subject field when we open the composer for a mail which
has the To: field set.


------------------------------------------------------------------------
r1007471 | tmcguire | 2009-08-05 19:50:36 +0000 (Wed, 05 Aug 2009) | 1 line

version++
------------------------------------------------------------------------
r1007472 | tmcguire | 2009-08-05 19:52:05 +0000 (Wed, 05 Aug 2009) | 6 lines

Backport r1005702 by mkoller from trunk to the 4.3 branch:

Set focus on subject field when we open the composer for a mail which
has the To: field set.


------------------------------------------------------------------------
r1007474 | tmcguire | 2009-08-05 19:54:24 +0000 (Wed, 05 Aug 2009) | 7 lines

Backport r1005718 by mkoller from trunk to the 4.3 branch:

Initialize some missing members and avoid a crash when printing
as there is no actionCollection given to the ctor and therefore
no KActions are available.


------------------------------------------------------------------------
r1007475 | tmcguire | 2009-08-05 19:55:47 +0000 (Wed, 05 Aug 2009) | 8 lines

Backport r1006866 by tmcguire from trunk to the 4.3 branch:

Upps, don't include attachments when replying. Makes me wonder why this works in the other branches.

CCBUG: 202186
MERGE: 4.3, e35, e4 (for saftey's sake)


------------------------------------------------------------------------
r1007476 | tmcguire | 2009-08-05 19:56:39 +0000 (Wed, 05 Aug 2009) | 7 lines

Backport r1007045 by mkoller from trunk to the 4.3 branch:

CCBUG: 138725

decode mailto: URL when dropping


------------------------------------------------------------------------
r1007477 | tmcguire | 2009-08-05 19:57:26 +0000 (Wed, 05 Aug 2009) | 5 lines

Backport r1007413 by mkoller from trunk to the 4.3 branch:

fix small optical glitch with margin inside tab


------------------------------------------------------------------------
r1008189 | scripty | 2009-08-07 03:05:06 +0000 (Fri, 07 Aug 2009) | 1 line

SVN_SILENT made messages (.desktop file)
------------------------------------------------------------------------
r1008943 | djarvie | 2009-08-08 18:14:59 +0000 (Sat, 08 Aug 2009) | 2 lines

Remove unused #includes

------------------------------------------------------------------------
r1008958 | djarvie | 2009-08-08 19:18:33 +0000 (Sat, 08 Aug 2009) | 1 line

Make information message intelligible
------------------------------------------------------------------------
r1008964 | djarvie | 2009-08-08 19:29:16 +0000 (Sat, 08 Aug 2009) | 2 lines

Bug 197496: Fix bad addresses when sending email alarms.

------------------------------------------------------------------------
r1008994 | tmcguire | 2009-08-08 21:32:48 +0000 (Sat, 08 Aug 2009) | 7 lines

Backport r993474 by tmcguire from trunk to the 4.3 branch:

Prevent an infinite recursion when entering a new folder with at least one message.

Curiously, this is very similar to kolab/issue3727


------------------------------------------------------------------------
r1008995 | tmcguire | 2009-08-08 21:35:43 +0000 (Sat, 08 Aug 2009) | 16 lines

Backport r997253 by tmcguire from trunk to the 4.3 branch:

SVN_MERGE
Merged revisions 996004 via svnmerge from 
svn+ssh://tmcguire@svn.kde.org/home/kde/branches/kdepim/enterprise4/kdepim

........
  r996004 | tmcguire | 2009-07-13 19:33:27 +0200 (Mon, 13 Jul 2009) | 5 lines
  
  Make the recursion counter a class member, instead of a global, otherwise this
  wouldn't work with more than one main window.
  
  Thanks to Marc for spotting this.
........


------------------------------------------------------------------------
r1009235 | djarvie | 2009-08-09 12:43:33 +0000 (Sun, 09 Aug 2009) | 2 lines

Install action icons into kalarm directory, not system directory

------------------------------------------------------------------------
r1009282 | mlaurent | 2009-08-09 15:40:27 +0000 (Sun, 09 Aug 2009) | 2 lines

Fix mem leak

------------------------------------------------------------------------
r1009389 | osterfeld | 2009-08-09 21:33:26 +0000 (Sun, 09 Aug 2009) | 1 line

set "I" as alternate shortcut for mark as important
------------------------------------------------------------------------
r1009390 | osterfeld | 2009-08-09 21:33:29 +0000 (Sun, 09 Aug 2009) | 1 line

call PimApplication::start so the kontact plugin is selected if kontact is running.
------------------------------------------------------------------------
r1009391 | osterfeld | 2009-08-09 21:33:33 +0000 (Sun, 09 Aug 2009) | 2 lines

move cmdline handling to the part, so one can run "akregator <somefeedurl>" to add a feed to a running kontact akregator plugin instance.
BUG:127322
------------------------------------------------------------------------
r1009392 | mkoller | 2009-08-09 21:40:41 +0000 (Sun, 09 Aug 2009) | 5 lines

Backport bug 178402

Make custom fonts settings work again.


------------------------------------------------------------------------
r1009398 | tmcguire | 2009-08-09 22:03:53 +0000 (Sun, 09 Aug 2009) | 10 lines

Backport, by popular request (that is, from 2 people).
Note that the one string is also in kmcomposewin.cpp, so no new strings.

Backport r1009394 by tmcguire from trunk to the 4.3 branch:

Bring back the ability to drag images from KSnapshot and add them as attachments.

CCBUG: 202101


------------------------------------------------------------------------
r1009551 | mlaurent | 2009-08-10 09:23:46 +0000 (Mon, 10 Aug 2009) | 5 lines

Backport
disable "create TODO" when korganizer is not on system
(for example on distro which splits all kdepim)


------------------------------------------------------------------------
r1009773 | winterz | 2009-08-10 20:23:40 +0000 (Mon, 10 Aug 2009) | 8 lines

Backport r1009699 by finex from trunk to the 4.3 branch:

Disable title resizing on knotes

CCBUG:175309



------------------------------------------------------------------------
r1010575 | djarvie | 2009-08-12 21:17:53 +0000 (Wed, 12 Aug 2009) | 2 lines

Fix KMail not starting minimised when adding mail to a KMail folder.

------------------------------------------------------------------------
r1010579 | mkoller | 2009-08-12 21:28:57 +0000 (Wed, 12 Aug 2009) | 4 lines

backport bug 203220

remove duplicate copy action

------------------------------------------------------------------------
r1010587 | mkoller | 2009-08-12 21:48:07 +0000 (Wed, 12 Aug 2009) | 5 lines

backport bug 202294

work around a bug in KCharSets (see bug #203633)


------------------------------------------------------------------------
r1010626 | djarvie | 2009-08-13 01:15:05 +0000 (Thu, 13 Aug 2009) | 2 lines

Correct #include for generated header

------------------------------------------------------------------------
r1010860 | tmcguire | 2009-08-13 14:49:43 +0000 (Thu, 13 Aug 2009) | 23 lines

Backport r1010847 by tmcguire from trunk to the 4.3 branch:

SVN_MERGE
Merged revisions 1009313 via svnmerge from 
svn+ssh://tmcguire@svn.kde.org/home/kde/branches/kdepim/enterprise4/kdepim

................
  r1009313 | winterz | 2009-08-09 19:12:14 +0200 (Sun, 09 Aug 2009) | 12 lines
  
  Merged revisions 1009307 via svnmerge from 
  https://svn.kde.org/home/kde/branches/kdepim/enterprise/kdepim
  
  ........
    r1009307 | winterz | 2009-08-09 12:59:10 -0400 (Sun, 09 Aug 2009) | 5 lines
    
    If the invitation's ORGANIZER property isn't set, then default it to the sender.
    Fixes kolab/issue1536
    
    MERGE: e4,trunk,4.3
  ........
................


------------------------------------------------------------------------
r1010861 | tmcguire | 2009-08-13 14:51:08 +0000 (Thu, 13 Aug 2009) | 4 lines

Backport r1010744 by gateau from trunk to the 4.3 branch:

Do not return 0 if a KMMainWin is found

------------------------------------------------------------------------
r1010872 | tmcguire | 2009-08-13 14:55:33 +0000 (Thu, 13 Aug 2009) | 23 lines

Backport r1010825 by tmcguire from trunk to the 4.3 branch:

SVN_MERGE
Merged revisions 1007086 via svnmerge from 
svn+ssh://tmcguire@svn.kde.org/home/kde/branches/kdepim/enterprise4/kdepim

................
  r1007086 | tmcguire | 2009-08-05 09:37:25 +0200 (Wed, 05 Aug 2009) | 12 lines
  
  Merged revisions 1007083 via svnmerge from 
  svn+ssh://tmcguire@svn.kde.org/home/kde/branches/kdepim/enterprise/kdepim
  
  ........
    r1007083 | tmcguire | 2009-08-05 09:31:37 +0200 (Wed, 05 Aug 2009) | 5 lines
    
    Allow changing the folder type of local folders again, as they can apparently be used
    as groupware folders too.
    
    kolab/issue3742
  ........
................


------------------------------------------------------------------------
r1010874 | tmcguire | 2009-08-13 14:57:05 +0000 (Thu, 13 Aug 2009) | 22 lines

Backport r1010830 by tmcguire from trunk to the 4.3 branch:

SVN_MERGE
Merged revisions 1007337 via svnmerge from 
svn+ssh://tmcguire@svn.kde.org/home/kde/branches/kdepim/enterprise4/kdepim

................
  r1007337 | winterz | 2009-08-05 16:56:43 +0200 (Wed, 05 Aug 2009) | 11 lines
  
  Merged revisions 1007225 via svnmerge from 
  https://svn.kde.org/home/kde/branches/kdepim/enterprise/kdepim
  
  ........
    r1007225 | tmcguire | 2009-08-05 06:33:45 -0400 (Wed, 05 Aug 2009) | 4 lines
    
    Make sure to also dive into encapsulated messages, to make deleting attachments from forwarded messages possible.
    
    MERGE: e4, trunk, 4.3
  ........
................


------------------------------------------------------------------------
r1010879 | tmcguire | 2009-08-13 15:02:20 +0000 (Thu, 13 Aug 2009) | 24 lines

Backport r1010835 by tmcguire from trunk to the 4.3 branch:

SVN_MERGE
Merged revisions 1007381 via svnmerge from 
svn+ssh://tmcguire@svn.kde.org/home/kde/branches/kdepim/enterprise4/kdepim

................
  r1007381 | tmcguire | 2009-08-05 19:29:33 +0200 (Wed, 05 Aug 2009) | 13 lines
  
  Merged revisions 1007245 via svnmerge from 
  svn+ssh://tmcguire@svn.kde.org/home/kde/branches/kdepim/enterprise/kdepim
  
  ........
    r1007245 | tmcguire | 2009-08-05 13:30:26 +0200 (Wed, 05 Aug 2009) | 6 lines
    
    When deleting or editing attachments of encapsulated messages that are displayed in a seperate
    reader window, make sure the original message is modified, not our dummy copy.
    
    kolab/issue3740
    MERGE: e4, trunk, 4.3, mailreader (if it has the same problem)
  ........
................


------------------------------------------------------------------------
r1010901 | tmcguire | 2009-08-13 15:20:07 +0000 (Thu, 13 Aug 2009) | 20 lines

Backport r1010839 by tmcguire from trunk to the 4.3 branch:

SVN_MERGE
Merged revisions 1008228 via svnmerge from 
svn+ssh://tmcguire@svn.kde.org/home/kde/branches/kdepim/enterprise4/kdepim

................
  r1008228 | tmcguire | 2009-08-07 09:53:48 +0200 (Fri, 07 Aug 2009) | 9 lines
  
  Merged revisions 1007276 via svnmerge from 
  svn+ssh://tmcguire@svn.kde.org/home/kde/branches/kdepim/enterprise/kdepim
  
  ........
    r1007276 | tmcguire | 2009-08-05 14:25:16 +0200 (Wed, 05 Aug 2009) | 1 line
    
    Move some stuff from the edit commands to kmmessage, I plan to reuse those.
  ........
................


------------------------------------------------------------------------
r1010902 | tmcguire | 2009-08-13 15:20:57 +0000 (Thu, 13 Aug 2009) | 23 lines

Backport r1010840 by tmcguire from trunk to the 4.3 branch:

SVN_MERGE
Merged revisions 1008229 via svnmerge from 
svn+ssh://tmcguire@svn.kde.org/home/kde/branches/kdepim/enterprise4/kdepim

................
  r1008229 | tmcguire | 2009-08-07 09:56:31 +0200 (Fri, 07 Aug 2009) | 12 lines
  
  Merged revisions 1007283 via svnmerge from 
  svn+ssh://tmcguire@svn.kde.org/home/kde/branches/kdepim/enterprise/kdepim
  
  ........
    r1007283 | tmcguire | 2009-08-05 14:46:17 +0200 (Wed, 05 Aug 2009) | 5 lines
    
    Be sure to also delete the attachment from our copy, so that the window
    is updated immediatley
    
    MERGE: e4, trunk, 4.3, mailreader (if the problem exists there)
  ........
................


------------------------------------------------------------------------
r1010903 | tmcguire | 2009-08-13 15:22:01 +0000 (Thu, 13 Aug 2009) | 22 lines

Backport r1010841 by tmcguire from trunk to the 4.3 branch:

Merged revisions 1008231 via svnmerge from 
svn+ssh://tmcguire@svn.kde.org/home/kde/branches/kdepim/enterprise4/kdepim

................
  r1008231 | tmcguire | 2009-08-07 10:02:11 +0200 (Fri, 07 Aug 2009) | 12 lines
  
  Merged revisions 1007372 via svnmerge from 
  svn+ssh://tmcguire@svn.kde.org/home/kde/branches/kdepim/enterprise/kdepim
  
  ........
    r1007372 | tmcguire | 2009-08-05 19:08:49 +0200 (Wed, 05 Aug 2009) | 5 lines
    
    - Make sure to match also uppercase type strings
    - Don't show a bogus attachment for the text part in encapsulated messages
    
    MERGE: e4, trunk, 4.3, mailreader
  ........
................


------------------------------------------------------------------------
r1010978 | djarvie | 2009-08-13 18:09:08 +0000 (Thu, 13 Aug 2009) | 4 lines

Backport SVN commit 1010801 by ahartmetz:

link with gold

------------------------------------------------------------------------
r1011030 | tmcguire | 2009-08-13 19:53:41 +0000 (Thu, 13 Aug 2009) | 5 lines

Backport r1011020 by mkoller from trunk to the 4.3 branch:

fix regression to my last commit r1010578 by defining the Edit-Menu for the Copy action


------------------------------------------------------------------------
r1011071 | mkoller | 2009-08-13 21:33:47 +0000 (Thu, 13 Aug 2009) | 4 lines

backport bug 178402

Make custom fonts settings work again.

------------------------------------------------------------------------
r1011073 | osterfeld | 2009-08-13 21:38:47 +0000 (Thu, 13 Aug 2009) | 1 line

SVN_SILENT bump version
------------------------------------------------------------------------
r1011083 | tmcguire | 2009-08-13 22:04:26 +0000 (Thu, 13 Aug 2009) | 5 lines

Backport r1009821 by mkoller from trunk to the 4.3 branch:

create correct email headers from a digest mail


------------------------------------------------------------------------
r1011085 | tmcguire | 2009-08-13 22:06:07 +0000 (Thu, 13 Aug 2009) | 10 lines

Backport r1011081 by tmcguire from trunk to the 4.3 branch:

Add a newline between MIME headers and message header, so that the objecttree parser can correctly parse the new
child nodes.
Andras, the bug report has a nice testcase for that.
CCMAIL: amantia@kde.org
CCBUG: 53668
MERGE: mailreader


------------------------------------------------------------------------
r1011091 | osterfeld | 2009-08-13 22:28:58 +0000 (Thu, 13 Aug 2009) | 5 lines

On the quest to more firefox compliance:
Fix adding feeds via feed:// urls

BUG:165160
CCBUG:127322
------------------------------------------------------------------------
r1011226 | scripty | 2009-08-14 03:21:30 +0000 (Fri, 14 Aug 2009) | 1 line

SVN_SILENT made messages (.desktop file)
------------------------------------------------------------------------
r1011561 | scripty | 2009-08-15 03:05:54 +0000 (Sat, 15 Aug 2009) | 1 line

SVN_SILENT made messages (.desktop file)
------------------------------------------------------------------------
r1011604 | djarvie | 2009-08-15 09:13:10 +0000 (Sat, 15 Aug 2009) | 2 lines

Fix use of wrong time zone if cancel and then reinstate a deferral.

------------------------------------------------------------------------
r1011612 | djarvie | 2009-08-15 09:36:04 +0000 (Sat, 15 Aug 2009) | 3 lines

Enable/disable the edit alarm dialogue OK button according to whether any
changes have been made to the contents, to prevent user confusion.

------------------------------------------------------------------------
r1011615 | djarvie | 2009-08-15 09:42:44 +0000 (Sat, 15 Aug 2009) | 2 lines

Update hicolor icons to new KAlarm icon

------------------------------------------------------------------------
r1011655 | djarvie | 2009-08-15 11:15:41 +0000 (Sat, 15 Aug 2009) | 1 line

Fix main volume setting for sound files
------------------------------------------------------------------------
r1011677 | djarvie | 2009-08-15 12:13:13 +0000 (Sat, 15 Aug 2009) | 1 line

Fix volume when fader used
------------------------------------------------------------------------
r1011745 | djarvie | 2009-08-15 18:54:24 +0000 (Sat, 15 Aug 2009) | 1 line

Remove warning
------------------------------------------------------------------------
r1011826 | mkoller | 2009-08-15 22:36:40 +0000 (Sat, 15 Aug 2009) | 4 lines

backport bug 203197

fix usage of the undo action to use the correct name

------------------------------------------------------------------------
r1011919 | mkoller | 2009-08-16 10:47:03 +0000 (Sun, 16 Aug 2009) | 9 lines


Backport r1011918 by mkoller from trunk to the 4.3 branch:

CCBUG: 182910

expand full thread when opening the root message as it was done with the old treeview



------------------------------------------------------------------------
r1012088 | winterz | 2009-08-16 19:21:57 +0000 (Sun, 16 Aug 2009) | 9 lines

Backport r1012087 by winterz from trunk to the 4.3 branch:

do not assert if we encounter an invalid TodoTreeNode in ::processChanged().
return normally instead.
hopefully fixes
CCBUG: 195282
MERGE: e4,4.3


------------------------------------------------------------------------
r1012116 | osterfeld | 2009-08-16 20:45:55 +0000 (Sun, 16 Aug 2009) | 2 lines

fix initialization order

------------------------------------------------------------------------
r1012118 | winterz | 2009-08-16 20:49:23 +0000 (Sun, 16 Aug 2009) | 7 lines

Backport r1012117 by winterz from trunk to the 4.3 branch:

don't crash when applying templates when there is no currently seleted template.
CCBUG: 204063
MERGE: e4,4.3


------------------------------------------------------------------------
r1012119 | osterfeld | 2009-08-16 20:50:36 +0000 (Sun, 16 Aug 2009) | 9 lines

make the article pane a QFrame and give it a proper border

Patch by Miroslav Los, milamby at yahoo.com

His comment:
"The ArticleViewer in Akregator's main tab does not have any borders. This makes the transition to its container look unclean and the splitter between it and the ArticleListView above it hard to make out and target with the mouse.
My patch solves this by changing ArticleViewer's base class from QWidget to QFrame and setting its style to Qt::StyledPanel to match the GUI around it and Qt::Raised. I did not select Qt::Sunken because the ArticleView contains the scrollbars of its KHTML component, unlike the sunken ArticleListView next to it. A Qt::Sunken ArticleViewer would therefore break overall UI consistency."


------------------------------------------------------------------------
r1012121 | mkoller | 2009-08-16 21:07:05 +0000 (Sun, 16 Aug 2009) | 10 lines


Backport r1012120 by mkoller from trunk to the 4.3 branch:

CCBUG: 203104

On sorting by subject, ignore Re: and Fwd: prefixes to bring back
the old KDE3 behavior.



------------------------------------------------------------------------
r1012125 | mkoller | 2009-08-16 21:15:03 +0000 (Sun, 16 Aug 2009) | 8 lines

Backport r1012123 by mkoller from trunk to the 4.3 branch:

CCBUG: 183517

On columns which show only an icon as their content, show also the icon
in the column header instead of the text.
Brings back KDE3 behavior.

------------------------------------------------------------------------
r1012178 | scripty | 2009-08-17 03:03:13 +0000 (Mon, 17 Aug 2009) | 1 line

SVN_SILENT made messages (.desktop file)
------------------------------------------------------------------------
r1012221 | vkrause | 2009-08-17 07:21:34 +0000 (Mon, 17 Aug 2009) | 8 lines

Backport SVN commit 993338 by vkrause from trunk:

Birthday resources can have different settings, so it does not make
sense to only allow one instance. Should help with the migration problem
David is seeing.

BUG: 200973

------------------------------------------------------------------------
r1012285 | winterz | 2009-08-17 10:52:11 +0000 (Mon, 17 Aug 2009) | 7 lines

Backport r1012284 by winterz from trunk to the 4.3 branch:

crash guard for
CCBUG: 195282
MERGE: e4,4.3


------------------------------------------------------------------------
r1012449 | djarvie | 2009-08-17 17:27:25 +0000 (Mon, 17 Aug 2009) | 2 lines

Remove unused parameter and declaration

------------------------------------------------------------------------
r1012466 | djarvie | 2009-08-17 17:37:29 +0000 (Mon, 17 Aug 2009) | 2 lines

Make --test-set-time work

------------------------------------------------------------------------
r1012550 | mkoller | 2009-08-17 20:10:49 +0000 (Mon, 17 Aug 2009) | 8 lines


Backport r1012548 by mkoller from trunk to the 4.3 branch:

CCBUG: 204193

Fix copy/paste error on GroupBy* enum


------------------------------------------------------------------------
r1013042 | djarvie | 2009-08-18 17:38:31 +0000 (Tue, 18 Aug 2009) | 2 lines

Bug 203957: Fix crash when restoring alarm with invalid type.

------------------------------------------------------------------------
r1013338 | tmcguire | 2009-08-19 15:35:55 +0000 (Wed, 19 Aug 2009) | 7 lines

Backport of:
SVN commit 1012649 by tmcguire:

Don't crash on mails where there are two embedded images on the same text block.

CCBUG: 204214

------------------------------------------------------------------------
r1013340 | tmcguire | 2009-08-19 15:47:05 +0000 (Wed, 19 Aug 2009) | 6 lines

Backport r1011385 by jtamate from trunk to the 4.3 branch:

http://reviewboard.kde.org/r/1296/

Make the menu entry "Use Fixed Font" follow what the reader win is doing.

------------------------------------------------------------------------
r1013402 | mkoller | 2009-08-19 19:30:29 +0000 (Wed, 19 Aug 2009) | 9 lines


Backport r1013400 by mkoller from trunk to the 4.3 branch:

CCBUG: 204257

Don't unhide all folders when dragging over the tree, as the hidden
folders got hidden due to a filter for a reason


------------------------------------------------------------------------
r1013437 | djarvie | 2009-08-19 21:15:59 +0000 (Wed, 19 Aug 2009) | 2 lines

Bug 203957: fix alarms being marked invalid when restoring from previous session.

------------------------------------------------------------------------
r1013439 | tmcguire | 2009-08-19 21:16:21 +0000 (Wed, 19 Aug 2009) | 5 lines

Backport r1013436 by tmcguire from trunk to the 4.3 branch:

Don't crash when pasting an image from the clipboard.


------------------------------------------------------------------------
r1013442 | djarvie | 2009-08-19 21:27:48 +0000 (Wed, 19 Aug 2009) | 1 line

Style
------------------------------------------------------------------------
r1013657 | winterz | 2009-08-20 11:45:11 +0000 (Thu, 20 Aug 2009) | 3 lines

increase version string for upcoming 4.3.1 release.
CCMAIL: kde-pim@kde.org

------------------------------------------------------------------------
r1013679 | winterz | 2009-08-20 12:39:56 +0000 (Thu, 20 Aug 2009) | 24 lines

Backport r1007406 by tmcguire from trunk to the 4.3 branch:

SVN_MERGE
Merged revisions 1006371 via svnmerge from 
svn+ssh://tmcguire@svn.kde.org/home/kde/branches/kdepim/enterprise4/kdepim

................
  r1006371 | winterz | 2009-08-03 18:17:49 +0200 (Mon, 03 Aug 2009) | 13 lines
  
  Merged revisions 1006369 via svnmerge from 
  https://svn.kde.org/home/kde/branches/kdepim/enterprise/kdepim
  
  ........
    r1006369 | winterz | 2009-08-03 12:09:55 -0400 (Mon, 03 Aug 2009) | 6 lines
    
    when DND email messages as attachments, try to use the mail subject as the
    attachment name.
    kolab/issue3772
    
    MERGE: e4,trunk
  ........
................


------------------------------------------------------------------------
r1013683 | winterz | 2009-08-20 12:40:47 +0000 (Thu, 20 Aug 2009) | 23 lines

Backport r1013408 by tmcguire from trunk to the 4.3 branch:

SVN_MERGE
Merged revisions 1011454 via svnmerge from 
svn+ssh://tmcguire@svn.kde.org/home/kde/branches/kdepim/enterprise4/kdepim

................
  r1011454 | winterz | 2009-08-14 19:37:54 +0200 (Fri, 14 Aug 2009) | 12 lines
  
  Merged revisions 1011452 via svnmerge from 
  https://svn.kde.org/home/kde/branches/kdepim/enterprise/kdepim
  
  ........
    r1011452 | winterz | 2009-08-14 13:19:44 -0400 (Fri, 14 Aug 2009) | 5 lines
    
    give attachments dragged from emails a proper name, even when the email subject
    is short.
    for kolab/issue3722
    MERGE: e4,trunk,4.3
  ........
................


------------------------------------------------------------------------
r1013841 | woebbe | 2009-08-20 21:30:09 +0000 (Thu, 20 Aug 2009) | 2 lines

Also use the name of the attachment to determine the mime type if a silly, broken 
client only gives you application/octet-stream as content type.
------------------------------------------------------------------------
r1013860 | winterz | 2009-08-20 22:37:04 +0000 (Thu, 20 Aug 2009) | 6 lines

Backport r1013858 by winterz from trunk to the 4.3 branch:

print the date *and* the time for the reminder time values
MERGE: 4.3


------------------------------------------------------------------------
r1014176 | mkoller | 2009-08-21 19:30:00 +0000 (Fri, 21 Aug 2009) | 7 lines

Backport r1014175 by mkoller from trunk to the 4.3 branch:

CCBUG: 151141

Limit wordwrap to max 998 chars per line according to RFC2822


------------------------------------------------------------------------
r1014190 | mkoller | 2009-08-21 20:09:49 +0000 (Fri, 21 Aug 2009) | 7 lines

Backport r1014188 by mkoller from trunk to the 4.3 branch:

CCBUG: 150759

don't act on left/right cursor in a special way during selection (Shift pressed)


------------------------------------------------------------------------
r1014199 | mkoller | 2009-08-21 20:27:41 +0000 (Fri, 21 Aug 2009) | 7 lines

Backport r1014198 by mkoller from trunk to the 4.3 branch:

CCBUG: 150620

fix lowercase typo which resulted in not detecting "OCT" as month


------------------------------------------------------------------------
r1014300 | winterz | 2009-08-22 11:54:08 +0000 (Sat, 22 Aug 2009) | 6 lines

Backport r1014298 by winterz from trunk to the 4.3 branch:

make sure the [Advanced] reminder button is enabled when editing Events and To-dos.
MERGE: 4.3


------------------------------------------------------------------------
r1014388 | winterz | 2009-08-22 18:05:36 +0000 (Sat, 22 Aug 2009) | 11 lines

Backport r1014387 by winterz from trunk to the 4.3 branch:

in the D-Bus version of openComposer(), make sure to actually send the message
if the hidden option is set.

Note that one of the other openComposer() methods also has this possible bug but
I'm not changing that at this time in order to reduce the possibility of regressions.

MERGE: 4.3


------------------------------------------------------------------------
r1014440 | mkoller | 2009-08-22 20:40:48 +0000 (Sat, 22 Aug 2009) | 8 lines

Backport r1014434 by mkoller from trunk to the 4.3 branch:

CCBUG: 204780

when cursor is in top most line, cursor up shall move focus to subject line
also when cursor is after the last char in the line.


------------------------------------------------------------------------
r1014458 | mkoller | 2009-08-22 21:39:19 +0000 (Sat, 22 Aug 2009) | 9 lines

backport r1005691 by mkoller:

make "mail to mailing list" action work again also on folders which
do not contain a ML, which then - as was implemented in the slot - creates a
normal new message without a To address.
This make kmail compatible to KDE3 again and it simplifies the toolbar
when a user uses the action "mail to mailing list" for all new mail creation - 
without the need to think about which toolbutton (new mail or new mail to ML) to click...

------------------------------------------------------------------------
r1014557 | osterfeld | 2009-08-23 10:48:46 +0000 (Sun, 23 Aug 2009) | 6 lines

backport

SVN commit 1011040 by mjansen:

Fix memleak. Free the dummy factory if registerFactory returns false.

------------------------------------------------------------------------
r1014560 | osterfeld | 2009-08-23 10:51:32 +0000 (Sun, 23 Aug 2009) | 6 lines

backport

SVN commit 1011042 by mjansen:

Fix memleak. Delete the articleModel if SelectionController is destroyed.

------------------------------------------------------------------------
r1014561 | osterfeld | 2009-08-23 10:52:40 +0000 (Sun, 23 Aug 2009) | 6 lines

backport

SVN commit 1011043 by mjansen:

Fix memleak. Delete all registered factories when destroying the factory.

------------------------------------------------------------------------
r1014683 | mkoller | 2009-08-23 15:29:59 +0000 (Sun, 23 Aug 2009) | 7 lines

Backport r1014681 by mkoller from trunk to the 4.3 branch:

CCBUG: 204765

make sure to interpret status text as HTML instead showing tags as plain text


------------------------------------------------------------------------
r1014688 | mkoller | 2009-08-23 15:42:29 +0000 (Sun, 23 Aug 2009) | 5 lines

Backport r1014687 by mkoller from trunk to the 4.3 branch:

Properly decode mailto URL when dropping


------------------------------------------------------------------------
r1014832 | djarvie | 2009-08-23 22:16:20 +0000 (Sun, 23 Aug 2009) | 1 line

Correct and add missing change
------------------------------------------------------------------------
r1014869 | scripty | 2009-08-24 03:33:36 +0000 (Mon, 24 Aug 2009) | 1 line

SVN_SILENT made messages (.desktop file)
------------------------------------------------------------------------
r1015070 | winterz | 2009-08-24 12:32:18 +0000 (Mon, 24 Aug 2009) | 13 lines

Backport r1015068 by winterz from trunk to the 4.3 branch:

merge r1014915 | vkrause | 2009-08-24 04:57:14 -0400 (Mon, 24 Aug 2009)

Unbreak LDAP completion.

This reverts revisions 951431 and 951433 and adds a different fix for
Kolab issue 1996 instead.

Kolab issue 3359



------------------------------------------------------------------------
r1015271 | scripty | 2009-08-25 03:36:35 +0000 (Tue, 25 Aug 2009) | 1 line

SVN_SILENT made messages (.desktop file)
------------------------------------------------------------------------
r1015554 | mkoller | 2009-08-25 20:53:27 +0000 (Tue, 25 Aug 2009) | 8 lines

Backport r1015553 by mkoller from trunk to the 4.3 branch:

CCBUG: 166922

When not printing from kmail's separate reader window, use the font
specified in the font settings.


------------------------------------------------------------------------
r1015563 | winterz | 2009-08-25 21:23:00 +0000 (Tue, 25 Aug 2009) | 7 lines

Backport r1015561 by winterz from trunk to the 4.3 branch:

fix crash that can happen when editing a to-do.
CCBUG: 205067
MERGE: 4.3


------------------------------------------------------------------------
r1016048 | djarvie | 2009-08-26 21:26:10 +0000 (Wed, 26 Aug 2009) | 2 lines

Add KDE 4.3.1 version number

------------------------------------------------------------------------
r1016057 | mkoller | 2009-08-26 21:50:18 +0000 (Wed, 26 Aug 2009) | 6 lines


Backport r1016056 by mkoller from trunk to the 4.3 branch:

make sure we have spacing between buttons


------------------------------------------------------------------------
r1016436 | mkoller | 2009-08-27 20:03:12 +0000 (Thu, 27 Aug 2009) | 19 lines

Backport r1016433 by mkoller from trunk to the 4.3 branch:

CCBUG: 205253

Fix inconsistent selection behavior in "Find Messages" window:
- Selecting a mail updates the message preview (if there is one) and
  does not open a new window for the selected mail
- Double clicking and the button "open message" opens the mail in a new window

This also fixes the problems:
- double clicking no longer opens three mail reader windows when no message preview
  is shown
- changing the shown message in the message preview no longer flickers
  due to now checking if the folder containing the selected mail is already shown,
  which also fixes the problem that when you clicked a currently shown folder the second time
  on the folder tree, the current message shown was cleared.



------------------------------------------------------------------------
r1016458 | mkoller | 2009-08-27 20:41:27 +0000 (Thu, 27 Aug 2009) | 8 lines

Backport r1016457 by mkoller from trunk to the 4.3 branch:

CCBUG: 186162

when selecting a mail in the "Find Messages" window, correctly update
the selection in the message list.


------------------------------------------------------------------------
r1016479 | mkoller | 2009-08-27 21:39:26 +0000 (Thu, 27 Aug 2009) | 6 lines

backport bug 180878

CCBUG: 180878

scroll to the selected message after clearing the quick search edit line

------------------------------------------------------------------------
