<?xml version="1.0" encoding="UTF-8" standalone="no"?>
<!-- Created with Inkscape (http://www.inkscape.org/) -->
<svg
   xmlns:dc="http://purl.org/dc/elements/1.1/"
   xmlns:cc="http://creativecommons.org/ns#"
   xmlns:rdf="http://www.w3.org/1999/02/22-rdf-syntax-ns#"
   xmlns:svg="http://www.w3.org/2000/svg"
   xmlns="http://www.w3.org/2000/svg"
   xmlns:xlink="http://www.w3.org/1999/xlink"
   xmlns:sodipodi="http://sodipodi.sourceforge.net/DTD/sodipodi-0.dtd"
   xmlns:inkscape="http://www.inkscape.org/namespaces/inkscape"
   version="1.0"
   x="0.0000000"
   y="0.0000000"
   width="1054.3562"
   height="3037.8618"
   viewBox="0 0 225 223.83838"
   id="svg1"
   xml:space="preserve"
   sodipodi:version="0.32"
   inkscape:version="0.46"
   sodipodi:docname="logo_akademy.svg"
   sodipodi:docbase="/home/tackat/Documents/vingoni"
   inkscape:output_extension="org.inkscape.output.svg.inkscape"
   inkscape:export-filename="/home/kd/Documents/sponsors_brochure/img/logo_akademy.png"
   inkscape:export-xdpi="100.00878"
   inkscape:export-ydpi="100.00878"><sodipodi:namedview
   id="base"
   pagecolor="#ffffff"
   bordercolor="#666666"
   borderopacity="1.0"
   inkscape:pageopacity="0.0"
   inkscape:pageshadow="2"
   inkscape:zoom="0.57473352"
   inkscape:cx="443.41768"
   inkscape:cy="2822.9285"
   inkscape:window-width="1024"
   inkscape:window-height="706"
   inkscape:window-x="-5"
   inkscape:window-y="-3"
   inkscape:current-layer="svg1"
   showgrid="false" />
<defs
   id="defs84"><inkscape:perspective
   sodipodi:type="inkscape:persp3d"
   inkscape:vp_x="0 : 1518.9309 : 1"
   inkscape:vp_y="0 : 1000 : 0"
   inkscape:vp_z="1054.3562 : 1518.9309 : 1"
   inkscape:persp3d-origin="527.1781 : 1012.6206 : 1"
   id="perspective2527" /><linearGradient
   id="linearGradient4397"><stop
     style="stop-color:#ffffff;stop-opacity:1;"
     offset="0"
     id="stop4399" /><stop
     style="stop-color:#ffffff;stop-opacity:0;"
     offset="1"
     id="stop4401" /></linearGradient>
			
		
				
				
				
				
				
			<linearGradient
   inkscape:collect="always"
   xlink:href="#linearGradient4397"
   id="linearGradient4403"
   x1="625.60187"
   y1="490.60699"
   x2="623.1156"
   y2="-42.400608"
   gradientUnits="userSpaceOnUse"
   gradientTransform="matrix(0.1550973,0,0,0.1550973,7.9910462,-194.90064)" /><filter
   inkscape:collect="always"
   id="filter4479"><feGaussianBlur
     inkscape:collect="always"
     stdDeviation="4.398675"
     id="feGaussianBlur4481" /></filter></defs>


	
		








	<metadata
   id="metadata921">
  <rdf:RDF>
    <cc:Work
   rdf:about="">
      <dc:format>image/svg+xml</dc:format>
      <dc:type
   rdf:resource="http://purl.org/dc/dcmitype/StillImage" />
    </cc:Work>
  </rdf:RDF>
</metadata>
<path
   d="M 101.62167,145.88376 L 98.079958,147.00411 C 97.563188,147.16656 97.000218,146.97331 96.696328,146.52376 C 96.696328,146.52376 89.709528,136.29915 80.687888,123.0958 C 69.903097,144.20324 47.961007,158.66138 22.622849,158.66138 C -13.376173,158.66138 -42.562037,129.47481 -42.562037,93.473696 C -42.562037,66.989982 -26.76507,44.213911 -4.0884573,34.011016 L -4.0884573,17.195205 C -8.2155523,18.639067 -12.20471,20.379099 -15.994302,22.443362 C -15.997799,22.440567 -16.002705,22.433553 -16.013206,22.427955 L -46.719234,2.2896254 C -47.546903,1.7490594 -48.636433,1.8610877 -49.331764,2.5613061 L -65.42002,18.646769 C -66.096431,19.325276 -66.223878,20.379115 -65.725319,21.20047 L -46.890093,52.220923 C -50.230844,57.837379 -52.906377,63.893593 -54.820095,70.281702 L -89.40046,77.474371 C -90.362569,77.673932 -91.055782,78.526103 -91.055782,79.513418 L -91.055782,102.26146 C -91.055782,103.22356 -90.398977,104.05682 -89.471887,104.28089 L -55.908938,112.48466 C -54.11917,119.88319 -51.344898,126.89799 -47.679251,133.34422 L -67.105465,162.96913 C -67.647435,163.79678 -67.534001,164.88772 -66.833779,165.58515 L -50.75043,181.67061 C -50.074014,182.34562 -49.018076,182.47586 -48.193228,181.9801 L -17.751158,163.49149 C -11.771282,166.94217 -5.3222523,169.65762 1.4936907,171.49921 L 8.5960247,205.65033 C 8.7962927,206.61803 9.6526637,207.30704 10.633672,207.30704 L 33.385214,207.30704 C 34.341709,207.30704 35.174981,206.65444 35.40325,205.71614 L 43.770884,171.49358 C 50.796888,169.59738 57.441977,166.77129 63.567506,163.16376 L 93.567748,182.83576 C 94.392608,183.37914 95.482148,183.26989 96.182358,182.56967 L 112.27062,166.48421 C 112.95123,165.8036 113.07447,164.75186 112.5745,163.9326 L 101.62167,145.88376 z M -17.941869,69.239393 C -19.499267,69.283 -21.066904,69.433335 -22.722277,69.694673 C -24.410357,69.966979 -26.120483,70.291397 -27.775856,70.650753 C -29.420376,71.010185 -30.272932,71.24658 -30.370933,71.33367 L -32.692848,82.715601 C -32.377023,82.399791 -30.901342,81.73809 -28.276661,80.757908 C -25.684681,79.777776 -23.457308,79.301049 -21.584085,79.301024 C -21.453418,79.301049 -21.315948,79.301049 -21.174334,79.301024 C -18.811074,79.301049 -17.095051,79.627421 -15.984176,80.302633 C -14.829781,81.054121 -14.065249,82.155926 -13.662261,83.626157 C -13.390027,84.562773 -13.252541,85.840641 -13.25251,87.496014 C -13.263421,87.485145 -13.641239,87.197324 -14.436233,86.630984 C -15.242183,86.042899 -16.290603,85.52761 -17.532119,85.037516 C -18.828137,84.547448 -20.256324,84.261591 -21.857252,84.218015 C -22.401807,84.21803 -22.676763,84.21803 -22.676753,84.218015 C -25.214313,84.21803 -27.590057,84.778859 -29.779075,85.857012 C -32.229503,87.055014 -34.13049,88.719595 -35.470043,90.865063 C -36.853182,92.999665 -37.518785,95.424853 -37.518785,98.103973 C -37.518785,101.00092 -36.853182,103.46861 -35.470043,105.57051 C -34.13049,107.71599 -32.278949,109.37862 -29.915658,110.53304 C -27.683064,111.64388 -25.257873,112.21755 -22.676753,112.21756 C -22.578747,112.21755 -22.490723,112.21755 -22.403586,112.21756 C -20.573954,112.17399 -18.958835,111.8387 -17.532119,111.26148 C -16.14902,110.72784 -15.010612,110.11559 -14.117536,109.44037 C -13.268087,108.81959 -12.842791,108.43286 -12.84276,108.30218 L -12.84276,111.71676 L -1.3242443,110.39646 L -1.3242443,82.579018 C -1.3242913,79.453399 -2.0759693,76.890731 -3.6006353,74.930361 C -5.1144723,72.970063 -7.1163623,71.494367 -9.6102946,70.514169 C -11.930051,69.664735 -14.443267,69.239424 -17.122368,69.239393 C -17.383763,69.239424 -17.66962,69.239424 -17.941869,69.239393 z M -19.671921,92.595119 C -19.497693,92.595134 -19.398769,92.595134 -19.398754,92.595119 C -17.74338,92.595134 -16.319115,93.069872 -15.164675,94.006479 C -13.955824,95.030213 -13.343611,96.355583 -13.343564,97.967393 C -13.343595,99.622793 -13.906377,100.86208 -15.028091,101.70066 C -16.182547,102.55014 -17.606797,102.97544 -19.26217,102.97544 C -21.222515,102.97544 -22.797135,102.45123 -23.951529,101.42749 C -25.029723,100.53445 -25.545011,99.346603 -25.544996,97.876343 C -25.545011,97.789213 -25.545011,97.701203 -25.544996,97.603173 C -25.50145,96.176483 -24.889222,94.988623 -23.723886,94.052003 C -22.613058,93.158978 -21.283764,92.682256 -19.671921,92.595119 z M 165.85356,69.102809 C 164.9605,69.10284 164.01294,69.152302 163.07637,69.239393 C 159.41706,69.642386 156.10271,70.879703 153.15132,72.927143 C 150.21082,74.974635 147.92114,77.588728 146.27664,80.757908 C 144.66481,83.883573 143.86365,87.163305 143.86367,90.637425 C 143.86365,90.735457 143.86365,90.823486 143.86367,90.910592 C 143.90723,94.929283 144.95565,98.580933 146.95955,101.83725 C 148.97432,105.09358 151.7259,107.62161 155.20007,109.44037 C 158.55441,111.27002 162.20996,112.21755 166.21778,112.21756 C 166.30488,112.21755 166.39288,112.21755 166.49095,112.21756 C 169.24627,112.17399 171.90789,111.65176 174.41277,110.71515 C 176.86315,109.77855 178.81555,108.87651 180.28585,107.98348 C 181.75605,107.09044 182.79359,106.42679 183.38173,105.98027 L 176.96232,96.146283 C 176.9623,96.244313 176.40343,96.622123 175.36885,97.330003 C 174.34509,98.048803 173.15328,98.757983 171.72663,99.378753 C 170.25636,99.999533 168.78263,100.37536 167.35597,100.51694 C 167.04012,100.51694 166.75228,100.51694 166.49095,100.51694 C 164.47613,100.51694 162.95992,100.24199 161.89265,99.697443 C 160.59663,99.076683 159.74799,98.550493 159.38862,98.103973 L 185.15731,81.8961 C 184.89589,81.27535 184.36972,80.323875 183.56385,79.027857 C 182.75788,77.731879 181.47111,76.219591 179.73952,74.520611 C 177.99696,72.876138 175.67068,71.497407 172.77377,70.332061 C 170.58471,69.537068 168.30396,69.102856 165.85356,69.102809 z M 165.53487,79.938412 C 166.78728,79.938437 167.87231,80.123406 168.72181,80.439216 C 169.5168,80.744187 170.04494,80.984515 170.3608,81.213188 L 155.70087,90.409788 C 155.70086,87.68711 156.69785,85.214425 158.61465,83.079822 C 160.48784,80.977926 162.76859,79.938427 165.53487,79.938412 z M 78.212691,69.239393 C 76.655293,69.283 75.087651,69.433335 73.432278,69.694673 C 71.744198,69.966979 70.034076,70.291397 68.378703,70.650753 C 66.734184,71.010185 65.881628,71.24658 65.783621,71.33367 L 63.461706,82.715601 C 63.777532,82.399791 65.253212,81.73809 67.877898,80.757908 C 70.469873,79.777776 72.697253,79.301049 74.57047,79.301024 C 74.701142,79.301049 74.838613,79.301049 74.980221,79.301024 C 77.343482,79.301049 79.059505,79.627421 80.170385,80.302633 C 81.324779,81.054121 82.089306,82.155926 82.492299,83.626157 C 82.764533,84.562773 82.902019,85.840641 82.902045,87.496014 C 82.891134,87.485145 82.513321,87.197324 81.718328,86.630984 C 80.912378,86.042899 79.863957,85.52761 78.622441,85.037516 C 77.326423,84.547448 75.898236,84.261591 74.297309,84.218015 C 73.752754,84.21803 73.477792,84.21803 73.477807,84.218015 C 70.940243,84.21803 68.564497,84.778859 66.375485,85.857012 C 63.925057,87.055014 62.024065,88.719595 60.684517,90.865063 C 59.301377,92.999665 58.635769,95.424853 58.635769,98.103973 C 58.635769,101.00092 59.301377,103.46861 60.684517,105.57051 C 62.024065,107.71599 63.87561,109.37862 66.238901,110.53304 C 68.47149,111.64388 70.896682,112.21755 73.477807,112.21756 C 73.575814,112.21755 73.663838,112.21755 73.750974,112.21756 C 75.580606,112.17399 77.195726,111.8387 78.622441,111.26148 C 80.005535,110.72784 81.143948,110.11559 82.037019,109.44037 C 82.886474,108.81959 83.311765,108.43286 83.311795,108.30218 L 83.311795,111.71676 L 94.830308,110.39646 L 94.830308,82.579018 C 94.830268,79.453399 94.078578,76.890731 92.553918,74.930361 C 91.040088,72.970063 89.038188,71.494367 86.544258,70.514169 C 84.224508,69.664735 81.711288,69.239424 79.032192,69.239393 C 78.770797,69.239424 78.48494,69.239424 78.212691,69.239393 z M 76.48264,92.595119 C 76.656867,92.595134 76.755791,92.595134 76.755802,92.595119 C 78.411175,92.595134 79.835445,93.069872 80.989881,94.006479 C 82.198736,95.030213 82.81095,96.355583 82.810991,97.967393 C 82.81096,99.622793 82.248183,100.86208 81.126464,101.70066 C 79.972013,102.55014 78.547759,102.97544 76.892385,102.97544 C 74.932041,102.97544 73.357426,102.45123 72.203031,101.42749 C 71.124832,100.53445 70.609548,99.346603 70.609559,97.876343 C 70.609548,97.789213 70.609548,97.701203 70.609559,97.603173 C 70.653109,96.176503 71.265333,94.988623 72.430669,94.052003 C 73.541503,93.158978 74.870796,92.682256 76.48264,92.595119 z M 141.08648,55.262385 L 128.52082,56.810328 L 128.52082,73.382418 C 125.75455,70.616195 122.00204,69.239424 117.27548,69.239393 C 113.38747,69.239424 109.8733,70.28786 106.75857,72.335279 C 103.58936,74.393656 101.12361,77.097757 99.337548,80.484741 C 97.595028,83.784664 96.696938,87.300776 96.696938,91.047176 C 96.696938,91.221434 96.696938,91.320358 96.696938,91.320343 C 96.740508,95.164793 97.741448,98.719463 99.701778,102.01935 C 101.673,105.31925 104.27424,107.88389 107.48701,109.71354 C 110.51463,111.45605 113.83989,112.35415 117.41206,112.35415 C 117.58629,112.35415 117.7277,112.35415 117.91286,112.35415 C 120.72265,112.25613 123.09642,111.69532 124.96966,110.71515 C 126.79928,109.73499 128.09,108.83493 128.88505,108.02901 L 128.88505,111.85334 L 141.08648,110.66962 L 141.08648,55.262385 z M 119.32422,80.621324 C 119.41133,80.621355 119.46079,80.62134 119.46081,80.621324 C 121.334,80.664916 123.04804,81.238578 124.60544,82.305851 C 126.17368,83.38405 127.3635,84.751895 128.20213,86.4944 C 128.87731,87.921106 129.24925,89.396801 129.24927,90.910592 C 129.24924,91.226433 129.20174,91.561747 129.15821,91.866672 C 128.88591,94.589365 127.69608,96.769253 125.56152,98.468193 C 123.63384,100.02558 121.45591,100.83563 119.00553,100.83563 C 118.70056,100.83563 118.36527,100.78816 118.04945,100.74458 C 115.54456,100.52678 113.40325,99.386403 111.58451,97.284483 C 109.92911,95.498403 109.08047,93.309605 109.08049,90.728479 C 109.08047,90.369098 109.12796,89.993264 109.17154,89.590287 C 109.34578,87.139889 110.4367,85.002508 112.49506,83.216406 C 114.49895,81.473911 116.77578,80.62134 119.32422,80.621324 z M 242.03626,110.53001 L 229.80052,111.33048 L 229.80052,86.777288 C 229.80047,84.816985 229.53364,83.188811 229.00004,81.892793 C 228.55348,80.825525 227.61688,80.291881 226.19024,80.29185 C 225.91793,80.291881 225.62387,80.313661 225.30809,80.357191 C 223.57642,80.53148 222.44377,81.223037 221.91018,82.431888 C 221.32203,83.629884 220.98443,85.236277 220.89733,87.251037 C 220.98443,87.784712 221.02799,88.449033 221.02802,89.244047 L 221.02802,110.53001 L 208.57991,111.46116 L 208.57991,87.104009 C 208.57988,82.51904 207.39823,80.22654 205.03497,80.226509 C 204.77357,80.22654 204.48496,80.270101 204.16915,80.357191 C 202.38305,80.662162 201.26676,81.397295 200.82025,82.56257 C 200.33015,83.717021 200.0851,85.726361 200.08512,88.5906 L 200.08512,110.53001 L 187.31027,111.46116 L 187.31027,70.653537 L 199.2193,69.248632 L 199.2193,73.267323 C 199.21929,73.125771 199.52968,72.722829 200.15046,72.058457 C 200.73855,71.383261 201.63159,70.735269 202.82959,70.114458 C 204.03844,69.493723 205.64482,69.112546 207.64874,68.970917 C 208.00811,68.927403 208.36751,68.905622 208.72692,68.905576 C 209.88132,68.905622 210.94861,69.085315 211.92881,69.444671 C 213.18121,69.891235 214.16137,70.403099 214.8693,70.980273 C 215.5445,71.611965 216.12715,72.23818 216.61728,72.858915 C 217.10732,73.523298 217.35237,73.926245 217.35239,74.067797 C 218.86617,72.281756 220.45077,70.985749 222.1062,70.179799 C 223.75066,69.417486 225.78178,69.014524 228.19958,68.970917 C 228.19953,68.970963 228.28665,68.970963 228.46096,68.970917 C 230.91132,68.970963 233.16571,69.488278 235.2241,70.522855 C 237.35863,71.590184 239.03036,73.125771 240.23929,75.129635 C 241.43722,77.188027 242.03622,79.485972 242.03626,82.02348 L 242.03626,110.53001 M 264.71326,91.988515 L 274.69463,68.170448 L 287.20809,71.192631 L 262.50788,124.51372 L 249.06326,122.70041 L 257.96645,105.71085 L 241.90804,71.192631 L 254.68288,68.448174 L 264.71326,91.988515 M 23.23822,49.80455 L 3.3203077,51.719713 L 3.3203077,133.77466 L 23.025411,130.79547 L 23.025411,95.811473 L 49.540042,134.62584 L 70.30912,128.0291 L 43.156112,90.70434 L 70.521945,55.507532 L 49.327252,50.655747 L 23.025411,85.852526 L 23.23822,49.80455 z M 165.87106,69.123862 C 164.978,69.123893 164.03044,69.173355 163.09386,69.260445 C 159.43456,69.663438 156.12021,70.900755 153.16882,72.948195 C 150.22831,74.995687 147.93864,77.60978 146.29414,80.77896 C 144.68231,83.904625 143.88115,87.184357 143.88117,90.658477 C 143.88115,90.75651 143.88115,90.844539 143.88117,90.931645 C 143.92473,94.950333 144.97315,98.601983 146.97705,101.85829 C 148.99182,105.11463 151.7434,107.64266 155.21757,109.46142 C 158.57191,111.29107 162.22745,112.2386 166.23528,112.23861 C 166.32237,112.2386 166.41038,112.2386 166.50845,112.23861 C 169.26377,112.19504 171.92539,111.67281 174.43027,110.7362 C 176.88065,109.7996 178.83305,108.89757 180.30335,108.00454 C 181.77355,107.1115 182.81109,106.44784 183.39923,106.00132 L 176.97982,96.167343 C 176.97979,96.265363 176.42093,96.643173 175.38635,97.351053 C 174.36258,98.069853 173.17077,98.779043 171.74413,99.399803 C 170.27386,100.02058 168.80013,100.39641 167.37347,100.53799 C 167.05762,100.53799 166.76978,100.53799 166.50845,100.53799 C 164.49363,100.53799 162.97741,100.26303 161.91015,99.718493 C 160.61413,99.097733 159.76549,98.571543 159.40612,98.125033 L 185.17481,81.917153 C 184.91339,81.296402 184.38722,80.344927 183.58134,79.048909 C 182.77537,77.752932 181.48861,76.240643 179.75701,74.541663 C 178.01446,72.897185 175.68817,71.51846 172.79127,70.353113 C 170.60221,69.55812 168.32145,69.123908 165.87106,69.123862 z M 165.55236,79.959464 C 166.80478,79.95949 167.88981,80.144459 168.7393,80.460268 C 169.53429,80.76524 170.06243,81.005567 170.3783,81.23424 L 155.71837,90.43084 C 155.71836,87.708163 156.71535,85.235477 158.63215,83.100875 C 160.50534,80.998978 162.78608,79.959479 165.55236,79.959464 z M 78.23019,69.260445 C 76.672792,69.304052 75.10515,69.454387 73.449777,69.715725 C 71.761697,69.988031 70.051575,70.31245 68.396202,70.671805 C 66.751678,71.031237 65.899122,71.267632 65.80112,71.354723 L 63.479205,82.736654 C 63.795031,82.420844 65.270711,81.759142 67.895392,80.77896 C 70.487372,79.798824 72.714747,79.322102 74.58797,79.322076 C 74.718636,79.322102 74.856112,79.322102 74.99772,79.322076 C 77.360981,79.322102 79.077004,79.648474 80.187879,80.323685 C 81.342273,81.075174 82.106806,82.176974 82.509793,83.647209 C 82.782027,84.583825 82.919513,85.861693 82.919544,87.517067 C 82.908633,87.506197 82.530815,87.218371 81.735822,86.652036 C 80.929872,86.063951 79.881451,85.548662 78.639935,85.058568 C 77.343917,84.5685 75.915735,84.282643 74.314803,84.239067 C 73.770248,84.239083 73.495291,84.239083 73.495307,84.239067 C 70.957742,84.239083 68.581996,84.799911 66.392979,85.878064 C 63.942556,87.076066 62.041564,88.740648 60.702016,90.886115 C 59.318876,93.020718 58.653268,95.445913 58.653268,98.125033 C 58.653268,101.02197 59.318876,103.48966 60.702016,105.59157 C 62.041564,107.73704 63.893109,109.39967 66.256395,110.55409 C 68.488989,111.66494 70.914181,112.2386 73.495307,112.23861 C 73.593308,112.2386 73.681337,112.2386 73.768474,112.23861 C 75.598105,112.19504 77.213225,111.85975 78.639935,111.28254 C 80.023034,110.74889 81.161447,110.13665 82.054518,109.46142 C 82.903968,108.84064 83.329264,108.45391 83.329295,108.32323 L 83.329295,111.73781 L 94.847808,110.41751 L 94.847808,82.60007 C 94.847758,79.474451 94.096078,76.911784 92.571418,74.951413 C 91.057588,72.991115 89.055688,71.515419 86.561758,70.535221 C 84.242008,69.685788 81.728787,69.260476 79.049686,69.260445 C 78.788291,69.260476 78.502434,69.260476 78.23019,69.260445 z M 76.500134,92.616171 C 76.674361,92.616187 76.773285,92.616187 76.773301,92.616171 C 78.428674,92.616187 79.852944,93.090924 81.00738,94.027531 C 82.21623,95.051273 82.828444,96.376633 82.82849,97.988443 C 82.828459,99.643843 82.265677,100.88313 81.143963,101.72171 C 79.989512,102.57119 78.565258,102.99649 76.909884,102.99649 C 74.94954,102.99649 73.37492,102.47229 72.22053,101.44855 C 71.142331,100.5555 70.627042,99.367653 70.627058,97.897383 C 70.627042,97.810263 70.627042,97.722253 70.627058,97.624223 C 70.670603,96.197553 71.282832,95.009673 72.448168,94.073055 C 73.559002,93.18003 74.88829,92.703308 76.500134,92.616171 z M 141.10397,55.283437 L 128.53832,56.831381 L 128.53832,73.40347 C 125.77204,70.637248 122.01954,69.260476 117.29297,69.260445 C 113.40496,69.260476 109.89079,70.308912 106.77607,72.356332 C 103.60686,74.414708 101.14111,77.11881 99.355048,80.505793 C 97.612528,83.805716 96.714438,87.321828 96.714438,91.068228 C 96.714438,91.242486 96.714438,91.34141 96.714438,91.341395 C 96.757998,95.185843 97.758948,98.740523 99.719268,102.04041 C 101.6905,105.3403 104.29174,107.90494 107.50451,109.73459 C 110.53213,111.4771 113.85739,112.3752 117.42955,112.3752 C 117.60379,112.3752 117.74519,112.3752 117.93036,112.3752 C 120.74014,112.27718 123.11392,111.71637 124.98716,110.7362 C 126.81678,109.75604 128.10749,108.85598 128.90254,108.05007 L 128.90254,111.87439 L 141.10397,110.69067 L 141.10397,55.283437 z M 118.38564,80.642376 C 118.69571,80.615659 119.02316,80.642376 119.34172,80.642376 C 119.42883,80.642407 119.47829,80.642392 119.4783,80.642376 C 121.35149,80.685968 123.06554,81.25963 124.62294,82.326903 C 126.19117,83.405102 127.381,84.772947 128.21963,86.515453 C 128.89481,87.942153 129.26675,89.417849 129.26677,90.931645 C 129.26673,91.24748 129.21924,91.582799 129.17571,91.887724 C 128.9034,94.610417 127.71358,96.790303 125.57902,98.489253 C 123.65134,100.04663 121.47341,100.85669 119.02303,100.85669 C 118.71806,100.85669 118.38277,100.80921 118.06694,100.76563 C 115.56206,100.54783 113.42074,99.407453 111.60201,97.305523 C 109.9466,95.519453 109.09797,93.330657 109.09799,90.749531 C 109.09797,90.390151 109.14546,90.014316 109.18904,89.611339 C 109.36328,87.160942 110.4542,85.02356 112.51256,83.237458 C 114.26597,81.712782 116.21518,80.829401 118.38564,80.642376 z M 242.03626,110.53001 L 229.80052,111.33048 L 229.80052,86.777288 C 229.80047,84.816985 229.53364,83.188811 229.00004,81.892793 C 228.55348,80.825525 227.61688,80.291881 226.19024,80.29185 C 225.91793,80.291881 225.62387,80.313661 225.30809,80.357191 C 223.57642,80.53148 222.44377,81.223037 221.91018,82.431888 C 221.32203,83.629884 220.98443,85.236277 220.89733,87.251037 C 220.98443,87.784712 221.02799,88.449033 221.02802,89.244047 L 221.02802,110.53001 L 208.57991,111.46116 L 208.57991,87.104009 C 208.57988,82.51904 207.39823,80.22654 205.03497,80.226509 C 204.77357,80.22654 204.48496,80.270101 204.16915,80.357191 C 202.38305,80.662162 201.26676,81.397295 200.82025,82.56257 C 200.33015,83.717021 200.0851,85.726361 200.08512,88.5906 L 200.08512,110.53001 L 187.31027,111.46116 L 187.31027,70.653537 L 199.2193,69.248632 L 199.2193,73.267323 C 199.21929,73.125771 199.52968,72.722829 200.15046,72.058457 C 200.73855,71.383261 201.63159,70.735269 202.82959,70.114458 C 204.03844,69.493723 205.64482,69.112546 207.64874,68.970917 C 208.00811,68.927403 208.36751,68.905622 208.72692,68.905576 C 209.88132,68.905622 210.94861,69.085315 211.92881,69.444671 C 213.18121,69.891235 214.16137,70.403099 214.8693,70.980273 C 215.5445,71.611965 216.12715,72.23818 216.61728,72.858915 C 217.10732,73.523298 217.35237,73.926245 217.35239,74.067797 C 218.86617,72.281756 220.45077,70.985749 222.1062,70.179799 C 223.75066,69.417486 225.78178,69.014524 228.19958,68.970917 C 228.19953,68.970963 228.28665,68.970963 228.46096,68.970917 C 230.91132,68.970963 233.16571,69.488278 235.2241,70.522855 C 237.35863,71.590184 239.03036,73.125771 240.23929,75.129635 C 241.43722,77.188027 242.03622,79.485972 242.03626,82.02348 L 242.03626,110.53001 M 264.71326,91.988515 L 274.69463,68.170448 L 287.20809,71.192631 L 262.50788,124.51372 L 249.06326,122.70041 L 257.96645,105.71085 L 241.90804,71.192631 L 254.68288,68.448174 L 264.71326,91.988515 M -17.92437,69.260445 C -19.481768,69.304052 -21.049405,69.454387 -22.704778,69.715725 C -24.392863,69.988031 -26.102984,70.31245 -27.758357,70.671805 C -29.402876,71.031237 -30.255433,71.267632 -30.353434,71.354723 L -32.675349,82.736654 C -32.359529,82.420844 -30.883843,81.759142 -28.259162,80.77896 C -25.667187,79.798824 -23.439809,79.322102 -21.566586,79.322076 C -21.435919,79.322102 -21.298448,79.322102 -21.156835,79.322076 C -18.79358,79.322102 -17.077551,79.648474 -15.966677,80.323685 C -14.812287,81.075174 -14.04775,82.176974 -13.644762,83.647209 C -13.372533,84.583825 -13.235042,85.861693 -13.235011,87.517067 C -13.245927,87.506197 -13.62374,87.218371 -14.418733,86.652036 C -15.224689,86.063951 -16.273104,85.548662 -17.51462,85.058568 C -18.810638,84.5685 -20.238825,84.282643 -21.839753,84.239067 C -22.384313,84.239083 -22.659264,84.239083 -22.659254,84.239067 C -25.196819,84.239083 -27.572558,84.799911 -29.761575,85.878064 C -32.212004,87.076066 -34.11299,88.740648 -35.452544,90.886115 C -36.835683,93.020718 -37.501291,95.445913 -37.501291,98.125033 C -37.501291,101.02197 -36.835683,103.48966 -35.452544,105.59157 C -34.112996,107.73704 -32.26145,109.39967 -29.898159,110.55409 C -27.66557,111.66494 -25.240374,112.2386 -22.659254,112.23861 C -22.561252,112.2386 -22.473224,112.2386 -22.386087,112.23861 C -20.556455,112.19504 -18.941335,111.85975 -17.51462,111.28254 C -16.131526,110.74889 -14.993113,110.13665 -14.100042,109.46142 C -13.250588,108.84064 -12.825291,108.45391 -12.825266,108.32323 L -12.825266,111.73781 L -1.3067503,110.41751 L -1.3067503,82.60007 C -1.3067973,79.474451 -2.0584753,76.911784 -3.5831363,74.951413 C -5.0969733,72.991115 -7.0988683,71.515419 -9.5927956,70.535221 C -11.912557,69.685788 -14.425768,69.260476 -17.104869,69.260445 C -17.366269,69.260476 -17.652121,69.260476 -17.92437,69.260445 z M -19.654421,92.616171 C -19.480194,92.616187 -19.38127,92.616187 -19.381254,92.616171 C -17.725886,92.616187 -16.301616,93.090924 -15.147175,94.027531 C -13.93833,95.051273 -13.326111,96.376633 -13.32607,97.988443 C -13.326101,99.643843 -13.888878,100.88313 -15.010592,101.72171 C -16.165048,102.57119 -17.589297,102.99649 -19.244671,102.99649 C -21.205021,102.99649 -22.779635,102.47229 -23.93403,101.44855 C -25.012229,100.5555 -25.527512,99.367653 -25.527497,97.897383 C -25.527517,97.810263 -25.527512,97.722253 -25.527497,97.624223 C -25.483956,96.197533 -24.871723,95.009673 -23.706387,94.073055 C -22.595559,93.18003 -21.266265,92.703308 -19.654421,92.616171 z"
   style="fill:#000000;fill-opacity:1;stroke:#ffffff;stroke-width:1.43408644;stroke-miterlimit:4;stroke-dasharray:none;stroke-opacity:1;filter:url(#filter4479)"
   id="path4405"
   transform="matrix(0.5035492,0,0,0.5035492,63.169857,-192.91344)"
   inkscape:export-filename="/home/kd/Documents/sponsors_brochure/img/path4405.png"
   inkscape:export-xdpi="100.00878"
   inkscape:export-ydpi="100.00878" /><path
   id="path79"
   style="fill:#0068c6;fill-opacity:1;stroke:#ffffff;stroke-width:0.72213304;stroke-miterlimit:4;stroke-dasharray:none;stroke-opacity:1"
   d="M 113.72098,-120.07418 L 111.93756,-119.51003 C 111.67734,-119.42823 111.39385,-119.52554 111.24083,-119.75191 C 111.24083,-119.75191 107.72263,-124.9005 103.1798,-131.54904 C 97.749114,-120.9204 86.700192,-113.64002 73.941185,-113.64002 C 55.813907,-113.64002 41.11739,-128.3369 41.11739,-146.46523 C 41.11739,-159.80108 49.071939,-171.26995 60.490729,-176.40761 L 60.490729,-184.8752 C 58.412533,-184.14814 56.403797,-183.27195 54.49555,-182.23249 C 54.493789,-182.2339 54.491319,-182.23743 54.486031,-182.24025 L 39.024037,-192.38089 C 38.607265,-192.65309 38.058633,-192.59668 37.7085,-192.24408 L 29.607272,-184.14426 C 29.266666,-183.8026 29.20249,-183.27194 29.453539,-182.85835 L 38.938001,-167.23802 C 37.255769,-164.40986 35.908507,-161.36026 34.944855,-158.14354 L 17.531942,-154.52168 C 17.047473,-154.42118 16.698406,-153.99207 16.698406,-153.49491 L 16.698406,-142.04015 C 16.698406,-141.55569 17.02914,-141.13611 17.495975,-141.02327 L 34.39657,-136.89227 C 35.297805,-133.16674 36.694788,-129.63445 38.540622,-126.38846 L 28.758568,-111.47086 C 28.48566,-111.05409 28.542779,-110.50475 28.895375,-110.15357 L 36.994132,-102.05374 C 37.334741,-101.71384 37.866457,-101.64826 38.281809,-101.8979 L 53.610886,-111.20783 C 56.622049,-109.47023 59.869452,-108.10287 63.301615,-107.17554 L 66.877989,-89.978776 C 66.978833,-89.491486 67.410058,-89.144536 67.904044,-89.144536 L 79.360562,-89.144536 C 79.842204,-89.144536 80.261798,-89.473156 80.376746,-89.945636 L 84.590258,-107.17838 C 88.128201,-108.13321 91.474324,-109.55628 94.558833,-111.37285 L 109.66543,-101.46703 C 110.08079,-101.19341 110.62943,-101.24843 110.98202,-101.60102 L 119.08325,-109.70084 C 119.42597,-110.04356 119.48803,-110.57317 119.23627,-110.9857 L 113.72098,-120.07418 z M 53.514855,-158.66839 C 52.730628,-158.64643 51.941245,-158.57073 51.107684,-158.43914 C 50.257652,-158.30202 49.39652,-158.13865 48.562959,-157.9577 C 47.734862,-157.77671 47.305558,-157.65767 47.256209,-157.61382 L 46.087012,-151.88246 C 46.246044,-152.04148 46.989123,-152.37468 48.310778,-152.86825 C 49.615968,-153.36179 50.73756,-153.60185 51.68082,-153.60186 C 51.746617,-153.60185 51.81584,-153.60185 51.887149,-153.60186 C 53.077167,-153.60185 53.941269,-153.4375 54.500649,-153.09751 C 55.081943,-152.71909 55.466923,-152.16428 55.669847,-151.42395 C 55.806931,-150.95231 55.876161,-150.30884 55.876177,-149.47528 C 55.870683,-149.48075 55.680433,-149.62569 55.280115,-149.91087 C 54.874279,-150.207 54.346348,-150.46647 53.721183,-150.71326 C 53.068575,-150.96003 52.349413,-151.10397 51.543267,-151.12591 C 51.269056,-151.12591 51.130603,-151.12591 51.130607,-151.12591 C 49.852821,-151.12591 48.656518,-150.84351 47.554239,-150.3006 C 46.320328,-149.69735 45.363088,-148.85915 44.688557,-147.7788 C 43.992079,-146.70392 43.656915,-145.48272 43.656915,-144.13365 C 43.656915,-142.67489 43.992079,-141.43229 44.688557,-140.37388 C 45.363088,-139.29353 46.29543,-138.45632 47.485463,-137.875 C 48.609684,-137.31564 49.830887,-137.02677 51.130607,-137.02677 C 51.179958,-137.02677 51.224283,-137.02677 51.26816,-137.02677 C 52.18947,-137.04871 53.002762,-137.21755 53.721183,-137.5082 C 54.417642,-137.77692 54.990886,-138.08522 55.440594,-138.42522 C 55.868333,-138.73781 56.082491,-138.93255 56.082506,-138.99835 L 56.082506,-137.27895 L 61.882646,-137.94378 L 61.882646,-151.95123 C 61.882622,-153.52514 61.504115,-154.81556 60.736371,-155.8027 C 59.97408,-156.78981 58.96603,-157.5329 57.710212,-158.02647 C 56.542101,-158.45421 55.276573,-158.66838 53.927514,-158.66839 C 53.795888,-158.66838 53.651945,-158.66838 53.514855,-158.66839 z M 52.643688,-146.90763 C 52.731421,-146.90762 52.781234,-146.90762 52.781241,-146.90763 C 53.614803,-146.90762 54.331991,-146.66857 54.913308,-146.19695 C 55.522024,-145.68144 55.830304,-145.01406 55.830327,-144.20243 C 55.830311,-143.36885 55.546923,-142.74481 54.982085,-142.32254 C 54.40076,-141.89479 53.68358,-141.68063 52.850018,-141.68063 C 51.862888,-141.68063 51.069989,-141.9446 50.488695,-142.46009 C 49.945772,-142.90979 49.686299,-143.50793 49.686306,-144.24827 C 49.686299,-144.29215 49.686299,-144.33647 49.686306,-144.38583 C 49.708234,-145.10424 50.01652,-145.70238 50.603325,-146.17402 C 51.162681,-146.6237 51.832046,-146.86375 52.643688,-146.90763 z M 146.06489,-158.73716 C 145.6152,-158.73715 145.13805,-158.71225 144.66644,-158.66839 C 142.8238,-158.46546 141.15486,-157.84242 139.6687,-156.81142 C 138.18801,-155.78041 137.03504,-154.46409 136.20695,-152.86825 C 135.39532,-151.29432 134.9919,-149.64282 134.99191,-147.89342 C 134.9919,-147.84407 134.9919,-147.79974 134.99191,-147.75588 C 135.01384,-145.73226 135.54177,-143.89348 136.55084,-142.25377 C 137.56537,-140.61404 138.95092,-139.34106 140.70034,-138.42522 C 142.38942,-137.5039 144.23017,-137.02677 146.2483,-137.02677 C 146.29216,-137.02677 146.33647,-137.02677 146.38586,-137.02677 C 147.77329,-137.04871 149.11355,-137.31167 150.37488,-137.7833 C 151.60877,-138.25493 152.5919,-138.70915 153.33226,-139.15883 C 154.07258,-139.60853 154.59503,-139.9427 154.89119,-140.16755 L 151.6587,-145.11945 C 151.6587,-145.07009 151.37728,-144.87984 150.85631,-144.52338 C 150.3408,-144.16143 149.74067,-143.80433 149.02227,-143.49174 C 148.28192,-143.17914 147.53982,-142.9899 146.82143,-142.9186 C 146.66238,-142.9186 146.51745,-142.9186 146.38586,-142.9186 C 145.37129,-142.9186 144.60781,-143.05705 144.07039,-143.33126 C 143.41778,-143.64384 142.99044,-143.90881 142.80949,-144.13365 L 155.78529,-152.29511 C 155.65365,-152.60769 155.3887,-153.08681 154.9829,-153.73942 C 154.57705,-154.39201 153.9291,-155.15351 153.05716,-156.00903 C 152.1797,-156.83711 151.0083,-157.53137 149.54956,-158.11817 C 148.44727,-158.5185 147.29879,-158.73714 146.06489,-158.73716 z M 145.90442,-153.28091 C 146.53507,-153.28089 147.08144,-153.18775 147.5092,-153.02873 C 147.90952,-152.87516 148.17546,-152.75414 148.33452,-152.639 L 140.95252,-148.00805 C 140.95251,-149.37906 141.45455,-150.62417 142.41975,-151.69905 C 143.36299,-152.75746 144.51147,-153.2809 145.90442,-153.28091 z M 101.93341,-158.66839 C 101.14918,-158.64643 100.35979,-158.57073 99.526224,-158.43914 C 98.676194,-158.30202 97.815064,-158.13865 96.981504,-157.9577 C 96.153414,-157.77671 95.724104,-157.65767 95.674754,-157.61382 L 94.505553,-151.88246 C 94.664592,-152.04148 95.407664,-152.37468 96.729324,-152.86825 C 98.034514,-153.36179 99.156104,-153.60185 100.09936,-153.60186 C 100.16516,-153.60185 100.23438,-153.60185 100.3057,-153.60186 C 101.49572,-153.60185 102.35982,-153.4375 102.9192,-153.09751 C 103.5005,-152.71909 103.88547,-152.16428 104.0884,-151.42395 C 104.22549,-150.95231 104.29472,-150.30884 104.29472,-149.47528 C 104.28924,-149.48075 104.09899,-149.62569 103.69867,-149.91087 C 103.29284,-150.207 102.7649,-150.46647 102.13974,-150.71326 C 101.48713,-150.96003 100.76796,-151.10397 99.961814,-151.12591 C 99.687604,-151.12591 99.549144,-151.12591 99.549154,-151.12591 C 98.271374,-151.12591 97.075064,-150.84351 95.972794,-150.3006 C 94.738876,-149.69735 93.781634,-148.85915 93.107104,-147.7788 C 92.410623,-146.70392 92.075456,-145.48272 92.075456,-144.13365 C 92.075456,-142.67489 92.410623,-141.43229 93.107104,-140.37388 C 93.781634,-139.29353 94.713979,-138.45632 95.904014,-137.875 C 97.028224,-137.31564 98.249434,-137.02677 99.549154,-137.02677 C 99.598504,-137.02677 99.642834,-137.02677 99.686704,-137.02677 C 100.60802,-137.04871 101.42131,-137.21755 102.13974,-137.5082 C 102.8362,-137.77692 103.40944,-138.08522 103.85914,-138.42522 C 104.28689,-138.73781 104.50104,-138.93255 104.50106,-138.99835 L 104.50106,-137.27895 L 110.3012,-137.94378 L 110.3012,-151.95123 C 110.30118,-153.52514 109.92267,-154.81556 109.15492,-155.8027 C 108.39263,-156.78981 107.38458,-157.5329 106.12876,-158.02647 C 104.96065,-158.45421 103.69513,-158.66838 102.34607,-158.66839 C 102.21444,-158.66838 102.0705,-158.66838 101.93341,-158.66839 z M 101.06224,-146.90763 C 101.14998,-146.90762 101.19979,-146.90762 101.19979,-146.90763 C 102.03335,-146.90762 102.75055,-146.66857 103.33186,-146.19695 C 103.94058,-145.68144 104.24886,-145.01406 104.24888,-144.20243 C 104.24886,-143.36885 103.96547,-142.74481 103.40064,-142.32254 C 102.81931,-141.89479 102.10213,-141.68063 101.26857,-141.68063 C 100.28143,-141.68063 99.488544,-141.9446 98.907244,-142.46009 C 98.364314,-142.90979 98.104844,-143.50793 98.104854,-144.24827 C 98.104844,-144.29215 98.104844,-144.33647 98.104854,-144.38583 C 98.126774,-145.10424 98.435064,-145.70238 99.021874,-146.17402 C 99.581234,-146.6237 100.25059,-146.86375 101.06224,-146.90763 z M 133.59346,-165.7065 L 127.26603,-164.92703 L 127.26603,-156.58217 C 125.87307,-157.9751 123.9835,-158.66838 121.60344,-158.66839 C 119.64564,-158.66838 117.87608,-158.14044 116.30767,-157.10946 C 114.71181,-156.07297 113.47018,-154.71131 112.57081,-153.00581 C 111.69337,-151.34413 111.24114,-149.57359 111.24114,-147.6871 C 111.24114,-147.59935 111.24114,-147.54953 111.24114,-147.54954 C 111.26307,-145.61367 111.7671,-143.82373 112.75422,-142.16207 C 113.74683,-140.50041 115.05668,-139.20898 116.67447,-138.28767 C 118.19902,-137.41023 119.87346,-136.95799 121.67222,-136.95799 C 121.75995,-136.95799 121.83116,-136.95799 121.9244,-136.95799 C 123.33926,-137.00735 124.53457,-137.28974 125.47784,-137.7833 C 126.39915,-138.27687 127.04909,-138.73009 127.44944,-139.13591 L 127.44944,-137.21017 L 133.59346,-137.80623 L 133.59346,-165.7065 z M 122.63509,-152.93703 C 122.67895,-152.93701 122.70385,-152.93702 122.70386,-152.93703 C 123.64711,-152.91508 124.51021,-152.62621 125.29444,-152.08879 C 126.08412,-151.54586 126.68326,-150.85709 127.10555,-149.97965 C 127.44554,-149.26123 127.63283,-148.51814 127.63284,-147.75588 C 127.63282,-147.59683 127.6089,-147.42798 127.58698,-147.27444 C 127.44987,-145.90343 126.85073,-144.80576 125.77588,-143.95025 C 124.80519,-143.16602 123.7085,-142.75813 122.47461,-142.75813 C 122.32104,-142.75813 122.15221,-142.78203 121.99318,-142.80398 C 120.73184,-142.91365 119.65358,-143.48789 118.73776,-144.54631 C 117.90419,-145.44569 117.47685,-146.54785 117.47686,-147.84758 C 117.47685,-148.02854 117.50076,-148.21779 117.52271,-148.42072 C 117.61045,-149.65461 118.15978,-150.73089 119.19627,-151.63028 C 120.20532,-152.50771 121.35182,-152.93702 122.63509,-152.93703 z M 184.42663,-137.87653 L 178.26533,-137.47345 L 178.26533,-149.8372 C 178.26531,-150.82431 178.13094,-151.64418 177.86225,-152.29678 C 177.63738,-152.83421 177.16576,-153.10292 176.44738,-153.10293 C 176.31026,-153.10292 176.16218,-153.09195 176.00317,-153.07003 C 175.13119,-152.98227 174.56084,-152.63404 174.29215,-152.02532 C 173.99599,-151.42207 173.826,-150.61317 173.78213,-149.59864 C 173.826,-149.32991 173.84793,-148.99539 173.84795,-148.59506 L 173.84795,-137.87653 L 167.57971,-137.40766 L 167.57971,-149.67268 C 167.5797,-151.98143 166.98468,-153.13582 165.79466,-153.13584 C 165.66303,-153.13582 165.5177,-153.11389 165.35868,-153.07003 C 164.45929,-152.91646 163.89718,-152.54629 163.67234,-151.95951 C 163.42555,-151.37819 163.30216,-150.36639 163.30217,-148.9241 L 163.30217,-137.87653 L 156.8694,-137.40766 L 156.8694,-157.9563 L 162.86619,-158.66374 L 162.86619,-156.64013 C 162.86618,-156.71141 163.02248,-156.91431 163.33507,-157.24885 C 163.6312,-157.58884 164.08089,-157.91514 164.68414,-158.22775 C 165.29286,-158.54032 166.10175,-158.73227 167.11082,-158.80358 C 167.29178,-158.82549 167.47275,-158.83646 167.65374,-158.83648 C 168.23503,-158.83646 168.77247,-158.74597 169.26605,-158.56502 C 169.89669,-158.34015 170.39025,-158.08241 170.74673,-157.79177 C 171.08672,-157.47368 171.38012,-157.15835 171.62692,-156.84578 C 171.87368,-156.51123 171.99708,-156.30833 171.99709,-156.23705 C 172.75935,-157.13641 173.55728,-157.78901 174.39086,-158.19485 C 175.21893,-158.57871 176.2417,-158.78162 177.45918,-158.80358 C 177.45915,-158.80356 177.50302,-158.80356 177.5908,-158.80358 C 178.82467,-158.80356 179.95987,-158.54306 180.99637,-158.0221 C 182.07121,-157.48465 182.91301,-156.71141 183.52177,-155.70236 C 184.12498,-154.66586 184.42661,-153.50874 184.42663,-152.23097 L 184.42663,-137.87653 M 195.84561,-147.21309 L 200.87172,-159.20666 L 207.17287,-157.68483 L 194.7351,-130.83505 L 187.96507,-131.74814 L 192.44826,-140.30321 L 184.36206,-157.68483 L 190.79482,-159.06681 L 195.84561,-147.21309 M 74.251054,-168.45479 L 64.221406,-167.49041 L 64.221406,-126.17171 L 74.143894,-127.67188 L 74.143894,-145.28804 L 87.495311,-125.7431 L 97.953564,-129.06488 L 84.280689,-147.85974 L 98.060734,-165.58306 L 87.388163,-168.02616 L 74.143894,-150.30286 L 74.251054,-168.45479 z M 146.07371,-158.72656 C 145.62401,-158.72655 145.14687,-158.70164 144.67525,-158.65779 C 142.83262,-158.45486 141.16368,-157.83181 139.6775,-156.80082 C 138.19681,-155.76981 137.04385,-154.45349 136.21577,-152.85765 C 135.40413,-151.28372 135.00071,-149.63221 135.00072,-147.88283 C 135.00071,-147.83347 135.00071,-147.78914 135.00072,-147.74528 C 135.02266,-145.72167 135.55058,-143.88288 136.55964,-142.24317 C 137.57418,-140.60344 138.95974,-139.33046 140.70915,-138.41462 C 142.39823,-137.4933 144.23897,-137.01617 146.25711,-137.01617 C 146.30096,-137.01617 146.34528,-137.01617 146.39466,-137.01617 C 147.78211,-137.03811 149.12236,-137.30107 150.38369,-137.7727 C 151.61757,-138.24433 152.6007,-138.69854 153.34108,-139.14823 C 154.0814,-139.59792 154.60385,-139.93211 154.9,-140.15695 L 151.66751,-145.10884 C 151.6675,-145.05949 151.38608,-144.86924 150.86513,-144.51279 C 150.34961,-144.15083 149.74947,-143.79372 149.03109,-143.48114 C 148.29074,-143.16854 147.54864,-142.9793 146.83025,-142.908 C 146.6712,-142.908 146.52626,-142.908 146.39466,-142.908 C 145.3801,-142.908 144.61661,-143.04646 144.0792,-143.32066 C 143.42658,-143.63324 142.99925,-143.89821 142.81829,-144.12305 L 155.79409,-152.28451 C 155.66246,-152.59709 155.3975,-153.07621 154.99171,-153.72882 C 154.58586,-154.38141 153.93791,-155.14291 153.06597,-155.99844 C 152.18851,-156.82651 151.01711,-157.52077 149.55837,-158.10758 C 148.45607,-158.50789 147.3076,-158.72654 146.07371,-158.72656 z M 145.91323,-153.27031 C 146.54388,-153.27029 147.09025,-153.17715 147.51801,-153.01813 C 147.91833,-152.86456 148.18427,-152.74354 148.34332,-152.6284 L 140.96133,-147.99745 C 140.96133,-149.36845 141.46336,-150.61357 142.42856,-151.68845 C 143.37181,-152.74686 144.52027,-153.2703 145.91323,-153.27031 z M 101.94222,-158.65779 C 101.158,-158.63583 100.36861,-158.56013 99.535044,-158.42854 C 98.685014,-158.29142 97.823884,-158.12805 96.990314,-157.9471 C 96.162224,-157.76611 95.732914,-157.64707 95.683574,-157.60322 L 94.514368,-151.87186 C 94.673399,-152.03088 95.416484,-152.36408 96.738134,-152.85765 C 98.043324,-153.3512 99.164924,-153.59125 100.10818,-153.59126 C 100.17397,-153.59125 100.2432,-153.59125 100.31451,-153.59126 C 101.50453,-153.59125 102.36863,-153.4269 102.92801,-153.08691 C 103.50931,-152.70849 103.89429,-152.15368 104.09721,-151.41335 C 104.23429,-150.94171 104.30352,-150.29824 104.30354,-149.46468 C 104.29804,-149.47015 104.1078,-149.61509 103.70748,-149.90026 C 103.30164,-150.1964 102.77371,-150.45587 102.14854,-150.70266 C 101.49594,-150.94943 100.77678,-151.09337 99.970624,-151.11532 C 99.696414,-151.1153 99.557964,-151.1153 99.557964,-151.11532 C 98.280174,-151.1153 97.083874,-150.83291 95.981594,-150.29 C 94.747691,-149.68675 93.790442,-148.84855 93.115919,-147.7682 C 92.419438,-146.69332 92.084272,-145.47212 92.084272,-144.12305 C 92.084272,-142.66429 92.419438,-141.42169 93.115919,-140.36328 C 93.790442,-139.28293 94.722787,-138.44571 95.912814,-137.86441 C 97.037044,-137.30504 98.258244,-137.01617 99.557964,-137.01617 C 99.607314,-137.01617 99.651644,-137.01617 99.695524,-137.01617 C 100.61684,-137.03811 101.43013,-137.20695 102.14854,-137.49759 C 102.845,-137.76631 103.41825,-138.07461 103.86796,-138.41462 C 104.29569,-138.72721 104.50985,-138.92195 104.50987,-138.98776 L 104.50987,-137.26835 L 110.31001,-137.93318 L 110.31001,-151.94063 C 110.30998,-153.51454 109.93147,-154.80496 109.16373,-155.7921 C 108.40145,-156.77921 107.39339,-157.5223 106.13757,-158.01588 C 104.96946,-158.44361 103.70393,-158.65778 102.35487,-158.65779 C 102.22325,-158.65778 102.07931,-158.65778 101.94222,-158.65779 z M 101.07105,-146.89703 C 101.15878,-146.89702 101.2086,-146.89702 101.20861,-146.89703 C 102.04217,-146.89702 102.75935,-146.65797 103.34067,-146.18635 C 103.94938,-145.67084 104.25766,-145.00346 104.25769,-144.19183 C 104.25767,-143.35826 103.97429,-142.73421 103.40945,-142.31195 C 102.82813,-141.88419 102.11094,-141.67003 101.27738,-141.67003 C 100.29025,-141.67003 99.497344,-141.93399 98.916054,-142.44949 C 98.373124,-142.89919 98.113654,-143.49733 98.113664,-144.23768 C 98.113654,-144.28155 98.113654,-144.32587 98.113664,-144.37523 C 98.135594,-145.09363 98.443874,-145.69178 99.030674,-146.16342 C 99.590044,-146.6131 100.2594,-146.85315 101.07105,-146.89703 z M 133.60226,-165.6959 L 127.27484,-164.91643 L 127.27484,-156.57157 C 125.88188,-157.9645 123.99231,-158.65778 121.61225,-158.65779 C 119.65445,-158.65778 117.88489,-158.12984 116.31647,-157.09886 C 114.72062,-156.06237 113.479,-154.70071 112.57963,-152.99521 C 111.70218,-151.33353 111.24995,-149.56299 111.24995,-147.6765 C 111.24995,-147.58875 111.24995,-147.53893 111.24995,-147.53894 C 111.27188,-145.60307 111.77591,-143.81312 112.76303,-142.15147 C 113.75564,-140.48981 115.06549,-139.19838 116.68328,-138.27707 C 118.20784,-137.39963 119.88227,-136.94739 121.68102,-136.94739 C 121.76876,-136.94739 121.83996,-136.94739 121.9332,-136.94739 C 123.34807,-136.99675 124.54338,-137.27915 125.48666,-137.7727 C 126.40796,-138.26627 127.0579,-138.71949 127.45824,-139.1253 L 127.45824,-137.19957 L 133.60226,-137.79563 L 133.60226,-165.6959 z M 122.16247,-152.92642 C 122.3186,-152.93988 122.48348,-152.92642 122.6439,-152.92642 C 122.68776,-152.92641 122.71267,-152.92642 122.71267,-152.92642 C 123.65591,-152.90447 124.51903,-152.61561 125.30326,-152.07819 C 126.09293,-151.53526 126.69207,-150.84648 127.11436,-149.96905 C 127.45435,-149.25063 127.64164,-148.50755 127.64165,-147.74528 C 127.64163,-147.58624 127.61772,-147.41738 127.5958,-147.26384 C 127.45868,-145.89283 126.85955,-144.79516 125.78468,-143.93964 C 124.814,-143.15543 123.71731,-142.74752 122.48342,-142.74752 C 122.32986,-142.74752 122.16102,-142.77143 122.00199,-142.79338 C 120.74066,-142.90305 119.66239,-143.47729 118.74657,-144.53572 C 117.91299,-145.43509 117.48567,-146.53725 117.48568,-147.83698 C 117.48567,-148.01794 117.50958,-148.20719 117.53152,-148.41011 C 117.61926,-149.64401 118.16859,-150.72029 119.20508,-151.61968 C 120.08801,-152.38743 121.06953,-152.83225 122.16247,-152.92642 z M 184.42663,-137.87653 L 178.26533,-137.47345 L 178.26533,-149.8372 C 178.26531,-150.82431 178.13094,-151.64418 177.86225,-152.29678 C 177.63738,-152.83421 177.16576,-153.10292 176.44738,-153.10293 C 176.31026,-153.10292 176.16218,-153.09195 176.00317,-153.07003 C 175.13119,-152.98227 174.56084,-152.63404 174.29215,-152.02532 C 173.99599,-151.42207 173.826,-150.61317 173.78213,-149.59864 C 173.826,-149.32991 173.84793,-148.99539 173.84795,-148.59506 L 173.84795,-137.87653 L 167.57971,-137.40766 L 167.57971,-149.67268 C 167.5797,-151.98143 166.98468,-153.13582 165.79466,-153.13584 C 165.66303,-153.13582 165.5177,-153.11389 165.35868,-153.07003 C 164.45929,-152.91646 163.89718,-152.54629 163.67234,-151.95951 C 163.42555,-151.37819 163.30216,-150.36639 163.30217,-148.9241 L 163.30217,-137.87653 L 156.8694,-137.40766 L 156.8694,-157.9563 L 162.86619,-158.66374 L 162.86619,-156.64013 C 162.86618,-156.71141 163.02248,-156.91431 163.33507,-157.24885 C 163.6312,-157.58884 164.08089,-157.91514 164.68414,-158.22775 C 165.29286,-158.54032 166.10175,-158.73227 167.11082,-158.80358 C 167.29178,-158.82549 167.47275,-158.83646 167.65374,-158.83648 C 168.23503,-158.83646 168.77247,-158.74597 169.26605,-158.56502 C 169.89669,-158.34015 170.39025,-158.08241 170.74673,-157.79177 C 171.08672,-157.47368 171.38012,-157.15835 171.62692,-156.84578 C 171.87368,-156.51123 171.99708,-156.30833 171.99709,-156.23705 C 172.75935,-157.13641 173.55728,-157.78901 174.39086,-158.19485 C 175.21893,-158.57871 176.2417,-158.78162 177.45918,-158.80358 C 177.45915,-158.80356 177.50302,-158.80356 177.5908,-158.80358 C 178.82467,-158.80356 179.95987,-158.54306 180.99637,-158.0221 C 182.07121,-157.48465 182.91301,-156.71141 183.52177,-155.70236 C 184.12498,-154.66586 184.42661,-153.50874 184.42663,-152.23097 L 184.42663,-137.87653 M 195.84561,-147.21309 L 200.87172,-159.20666 L 207.17287,-157.68483 L 194.7351,-130.83505 L 187.96507,-131.74814 L 192.44826,-140.30321 L 184.36206,-157.68483 L 190.79482,-159.06681 L 195.84561,-147.21309 M 53.523666,-158.65779 C 52.73944,-158.63583 51.950057,-158.56013 51.116495,-158.42854 C 50.266461,-158.29142 49.405332,-158.12805 48.57177,-157.9471 C 47.743674,-157.76611 47.31437,-157.64707 47.265021,-157.60322 L 46.095823,-151.87186 C 46.254853,-152.03088 46.997934,-152.36408 48.31959,-152.85765 C 49.624777,-153.3512 50.746371,-153.59125 51.689631,-153.59126 C 51.755429,-153.59125 51.824652,-153.59125 51.895961,-153.59126 C 53.085976,-153.59125 53.950081,-153.4269 54.509461,-153.08691 C 55.090753,-152.70849 55.475735,-152.15368 55.678659,-151.41335 C 55.81574,-150.94171 55.884973,-150.29824 55.884989,-149.46468 C 55.879492,-149.47015 55.689244,-149.61509 55.288927,-149.90026 C 54.883088,-150.1964 54.35516,-150.45587 53.729995,-150.70266 C 53.077387,-150.94943 52.358224,-151.09337 51.552078,-151.11532 C 51.277865,-151.1153 51.139414,-151.1153 51.139419,-151.11532 C 49.86163,-151.1153 48.665329,-150.83291 47.563051,-150.29 C 46.32914,-149.68675 45.3719,-148.84855 44.697368,-147.7682 C 44.00089,-146.69332 43.665724,-145.47212 43.665724,-144.12305 C 43.665724,-142.66429 44.00089,-141.42169 44.697368,-140.36328 C 45.371897,-139.28293 46.304241,-138.44571 47.494275,-137.86441 C 48.618493,-137.30504 49.839698,-137.01617 51.139419,-137.01617 C 51.188768,-137.01617 51.233094,-137.01617 51.276972,-137.01617 C 52.198282,-137.03811 53.011574,-137.20695 53.729995,-137.49759 C 54.426451,-137.76631 54.999698,-138.07461 55.449403,-138.41462 C 55.877145,-138.72721 56.091303,-138.92195 56.091315,-138.98776 L 56.091315,-137.26835 L 61.891455,-137.93318 L 61.891455,-151.94063 C 61.891432,-153.51454 61.512924,-154.80496 60.745183,-155.7921 C 59.982891,-156.77921 58.974839,-157.5223 57.719024,-158.01588 C 56.55091,-158.44361 55.285384,-158.65778 53.936325,-158.65779 C 53.804698,-158.65778 53.660756,-158.65778 53.523666,-158.65779 z M 52.6525,-146.89703 C 52.740232,-146.89702 52.790045,-146.89702 52.790053,-146.89703 C 53.623612,-146.89702 54.340802,-146.65797 54.92212,-146.18635 C 55.530833,-145.67084 55.839116,-145.00346 55.839136,-144.19183 C 55.83912,-143.35826 55.555734,-142.73421 54.990896,-142.31195 C 54.409571,-141.88419 53.692392,-141.67003 52.85883,-141.67003 C 51.871697,-141.67003 51.078802,-141.93399 50.497507,-142.44949 C 49.954581,-142.89919 49.69511,-143.49733 49.695118,-144.23768 C 49.695108,-144.28155 49.69511,-144.32587 49.695118,-144.37523 C 49.717043,-145.09364 50.025332,-145.69178 50.612136,-146.16342 C 51.171493,-146.6131 51.840858,-146.85315 52.6525,-146.89703 z"
   inkscape:export-filename="/home/kd/Documents/sponsors_brochure/img/logo_akademy.png"
   inkscape:export-xdpi="100.00878"
   inkscape:export-ydpi="100.00878" /><path
   style="fill:url(#linearGradient4403);fill-opacity:1;stroke:none;stroke-width:1.43408644;stroke-miterlimit:4;stroke-dasharray:none;stroke-opacity:1"
   d="M 38.516138,-192.54995 C 38.222882,-192.56888 37.925556,-192.46497 37.706723,-192.2446 L 29.607736,-184.14561 C 29.267128,-183.80395 29.20159,-183.26995 29.452639,-182.85637 L 38.937809,-167.24001 C 37.255575,-164.41184 35.907703,-161.3593 34.944052,-158.14257 L 17.529531,-154.52202 C 17.186846,-154.45094 16.919548,-154.21418 16.787973,-153.90648 C 24.298624,-152.58474 32.530644,-151.42229 41.356357,-150.43618 C 42.756776,-162.04933 50.223188,-171.78526 60.491489,-176.40529 L 60.491489,-184.87748 C 58.413293,-184.15042 56.404255,-183.27059 54.496007,-182.23113 C 54.494245,-182.23254 54.491601,-182.238 54.486314,-182.24083 L 39.025051,-192.38031 C 38.868761,-192.48239 38.692091,-192.53858 38.516138,-192.54995 z M 74.251529,-168.45655 L 64.223518,-167.49204 L 64.223518,-148.38598 C 70.832572,-147.92855 77.665427,-147.56262 84.681821,-147.30031 L 84.279537,-147.85768 L 98.058964,-165.5824 L 87.386331,-168.02518 L 74.1449,-150.30047 L 74.251529,-168.45655 z M 133.59565,-165.70841 L 127.26574,-164.92809 L 127.26574,-156.58191 C 127.18194,-156.66572 127.09626,-156.74551 127.00886,-156.82425 C 127.00549,-156.82728 127.00255,-156.83092 126.99917,-156.83394 C 126.9116,-156.91251 126.8189,-156.98824 126.72775,-157.06174 C 126.72421,-157.06458 126.7216,-157.0686 126.71805,-157.07144 C 125.39067,-158.13728 123.68724,-158.66602 121.60469,-158.66603 C 119.64688,-158.66601 117.87556,-158.14118 116.30715,-157.11021 C 114.71128,-156.07372 113.46963,-154.71049 112.57026,-153.00497 C 111.69282,-151.34331 111.24225,-149.57455 111.24225,-147.68805 C 111.24224,-147.6003 111.24225,-147.54748 111.24225,-147.54749 C 111.24506,-147.29894 111.25261,-147.05456 111.27132,-146.81078 C 111.28915,-146.81078 111.30682,-146.81078 111.32464,-146.81078 C 113.41951,-146.81078 115.50421,-146.82217 117.577,-146.83986 C 117.51683,-147.15777 117.48491,-147.49229 117.48491,-147.8383 C 117.4849,-148.01926 117.51143,-148.2073 117.53338,-148.41022 C 117.62112,-149.64411 118.16904,-150.7194 119.20552,-151.6188 C 119.6458,-152.00164 120.1105,-152.30633 120.6014,-152.52515 C 120.65736,-152.54937 120.7144,-152.57093 120.77104,-152.593 C 120.7811,-152.59704 120.79004,-152.60357 120.80012,-152.60754 C 120.81114,-152.61175 120.823,-152.6131 120.83404,-152.61724 C 120.89829,-152.64202 120.96279,-152.66795 121.02792,-152.68993 C 121.46567,-152.83263 121.92304,-152.91246 122.39956,-152.93228 C 122.48035,-152.93059 122.56169,-152.92743 122.6419,-152.92743 C 122.68576,-152.92742 122.71459,-152.92742 122.7146,-152.92743 C 123.53994,-152.90822 124.30366,-152.68389 125.00714,-152.26826 C 125.1037,-152.21087 125.19881,-152.15355 125.2931,-152.08893 C 125.29684,-152.08638 125.29905,-152.0818 125.30279,-152.07924 C 125.50021,-151.94351 125.68635,-151.79766 125.86017,-151.64303 C 125.94342,-151.56859 126.02463,-151.49426 126.10251,-151.41523 C 126.10573,-151.41198 126.109,-151.40879 126.1122,-151.40553 C 126.1899,-151.32628 126.26763,-151.24236 126.34001,-151.15835 C 126.34228,-151.15572 126.34258,-151.15129 126.34485,-151.14866 C 126.41766,-151.06378 126.48582,-150.98164 126.55327,-150.89177 C 126.5664,-150.87439 126.57909,-150.85604 126.59204,-150.83846 C 126.64786,-150.76212 126.70476,-150.68096 126.75683,-150.60097 C 126.7593,-150.5972 126.76406,-150.59506 126.76652,-150.59127 C 126.82784,-150.49656 126.88487,-150.40041 126.941,-150.30047 C 126.94456,-150.29416 126.94716,-150.28741 126.9507,-150.28108 C 127.00521,-150.18314 127.05619,-150.08365 127.1058,-149.98058 C 127.19079,-149.80098 127.26822,-149.62034 127.33359,-149.43774 C 127.33482,-149.43434 127.33723,-149.43144 127.33844,-149.42805 C 127.40224,-149.24877 127.45455,-149.06721 127.49839,-148.8852 C 127.49922,-148.88177 127.5024,-148.87895 127.50323,-148.87551 C 127.59097,-148.50794 127.63409,-148.13356 127.6341,-147.7559 C 127.63408,-147.59686 127.60755,-147.42962 127.58563,-147.27607 C 127.57605,-147.18032 127.56579,-147.0832 127.5517,-146.99011 C 129.58101,-147.03558 131.59809,-147.09278 133.60049,-147.1549 L 133.60049,-165.69387 L 133.59565,-165.69387 L 133.59565,-165.70841 z M 200.87395,-159.20887 L 198.12098,-152.64147 C 200.6102,-153.02076 203.03336,-153.41374 205.38633,-153.82408 L 207.17478,-157.68698 L 200.87395,-159.20887 z M 190.79262,-159.06832 L 184.36093,-157.68698 L 187.39988,-151.15835 C 189.5759,-151.43078 191.70945,-151.71671 193.80248,-152.01138 L 190.79262,-159.06832 z M 167.65405,-158.83567 C 167.56356,-158.83566 167.47311,-158.83146 167.38263,-158.82597 C 167.29215,-158.82049 167.20169,-158.81269 167.11121,-158.80174 C 166.98507,-158.79283 166.86273,-158.78535 166.74285,-158.77266 C 166.38321,-158.73461 166.05259,-158.67985 165.74925,-158.60787 C 165.54704,-158.55988 165.35454,-158.50129 165.17734,-158.43823 C 165.08874,-158.4067 165.0028,-158.3766 164.92046,-158.34129 C 164.83812,-158.30599 164.75905,-158.26889 164.68296,-158.22982 C 164.60756,-158.19074 164.53546,-158.14815 164.46486,-158.10865 C 164.39426,-158.06914 164.3271,-158.03226 164.26129,-157.99233 C 164.19549,-157.9524 164.13328,-157.91152 164.07228,-157.87116 C 163.82823,-157.70972 163.61915,-157.54507 163.45189,-157.37679 C 163.41006,-157.33471 163.37257,-157.29327 163.33557,-157.25077 C 163.25741,-157.16713 163.1906,-157.09015 163.13198,-157.02297 C 163.07338,-156.95579 163.02081,-156.89436 162.98174,-156.84363 C 162.94267,-156.79291 162.91404,-156.75189 162.8945,-156.71762 C 162.88473,-156.70048 162.88,-156.68702 162.87512,-156.674 C 162.87023,-156.66097 162.86542,-156.64898 162.86542,-156.64007 L 162.86542,-158.66603 L 156.86994,-157.9584 L 156.86994,-148.27935 C 159.03867,-148.42384 161.18145,-148.58037 163.30163,-148.74465 L 163.30163,-148.92398 C 163.30163,-149.10427 163.30262,-149.27575 163.30647,-149.44259 C 163.31033,-149.60942 163.31816,-149.77388 163.32586,-149.92727 C 163.34129,-150.23403 163.36288,-150.51281 163.39373,-150.76576 C 163.40915,-150.89224 163.42776,-151.0114 163.44704,-151.12442 C 163.50488,-151.46349 163.57744,-151.74007 163.66998,-151.95807 C 163.68404,-151.99474 163.70176,-152.02972 163.71845,-152.0647 C 163.83527,-152.30957 164.01538,-152.51345 164.26129,-152.6754 C 164.29642,-152.69853 164.335,-152.72181 164.37276,-152.74325 C 164.41055,-152.76469 164.4487,-152.7865 164.48909,-152.80626 C 164.56989,-152.84576 164.65463,-152.88016 164.74597,-152.91289 C 164.92866,-152.97835 165.13182,-153.0296 165.35667,-153.06799 C 165.51569,-153.11184 165.66125,-153.13582 165.79288,-153.13584 C 165.86725,-153.13584 165.94126,-153.13032 166.011,-153.1213 C 166.22017,-153.09424 166.40587,-153.02596 166.57322,-152.91774 C 166.85213,-152.73736 167.07452,-152.44631 167.23723,-152.04047 C 167.26976,-151.9593 167.30142,-151.87377 167.32932,-151.78358 C 167.35721,-151.6934 167.38362,-151.59683 167.40687,-151.49762 C 167.52308,-151.0016 167.58134,-150.39187 167.58135,-149.67038 L 167.58135,-149.08877 C 169.67621,-149.26693 171.74425,-149.45384 173.78524,-149.651 C 173.79042,-149.75888 173.79655,-149.86772 173.80463,-149.97088 C 173.83289,-150.33205 173.87658,-150.66114 173.94034,-150.96448 C 173.96159,-151.06559 173.98785,-151.16545 174.01304,-151.26013 C 174.06343,-151.4495 174.12138,-151.62477 174.18752,-151.78843 C 174.2206,-151.87026 174.25713,-151.95052 174.29415,-152.02593 C 174.31095,-152.06397 174.32832,-152.1014 174.34747,-152.1374 C 174.36661,-152.17341 174.38413,-152.20521 174.40564,-152.23919 C 174.42714,-152.27316 174.44962,-152.30903 174.47348,-152.34097 C 174.52122,-152.40485 174.57628,-152.46456 174.63343,-152.5203 C 174.66199,-152.54817 174.68974,-152.57201 174.72067,-152.59784 C 174.81347,-152.67535 174.91685,-152.74707 175.03086,-152.80626 C 175.06886,-152.82599 175.10683,-152.84188 175.14718,-152.85957 C 175.38934,-152.96575 175.67807,-153.03508 176.00506,-153.06799 C 176.08458,-153.07895 176.15882,-153.09158 176.23287,-153.09706 C 176.30691,-153.10255 176.37757,-153.1019 176.44613,-153.10191 C 176.53593,-153.10191 176.62092,-153.10062 176.703,-153.09222 C 176.94927,-153.06702 177.16108,-153.00396 177.33794,-152.90319 C 177.45584,-152.83601 177.56108,-152.75193 177.64813,-152.65116 C 177.66989,-152.62597 177.6913,-152.59606 177.71113,-152.56877 C 177.75082,-152.51418 177.78581,-152.45726 177.81778,-152.39428 C 177.83375,-152.36279 177.84734,-152.33093 177.86139,-152.29734 C 177.89499,-152.21577 177.92893,-152.13211 177.95832,-152.04531 C 178.01711,-151.87171 178.06659,-151.68729 178.10859,-151.49278 C 178.19256,-151.10376 178.24202,-150.67133 178.25883,-150.19868 C 178.25989,-150.16876 178.25803,-150.13686 178.25883,-150.1066 C 180.34692,-150.32677 182.40506,-150.55504 184.4288,-150.79484 L 184.4288,-152.22949 C 184.42878,-153.02809 184.31061,-153.77889 184.07498,-154.48325 C 184.02784,-154.62412 183.97643,-154.76298 183.91988,-154.90007 C 183.86333,-155.03718 183.80168,-155.17387 183.7357,-155.3072 C 183.66972,-155.44054 183.59785,-155.57508 183.52245,-155.70464 C 183.44635,-155.83077 183.36832,-155.94939 183.28496,-156.06815 C 183.20158,-156.18691 183.11388,-156.30573 183.02322,-156.41712 C 182.93256,-156.52851 182.83521,-156.63298 182.73726,-156.737 C 182.34548,-157.1531 181.89814,-157.50994 181.38985,-157.80815 C 181.26278,-157.8827 181.13162,-157.95423 180.99727,-158.02141 C 180.73813,-158.15165 180.47385,-158.26785 180.2024,-158.36553 C 179.93093,-158.46321 179.65255,-158.54274 179.36875,-158.60787 C 179.22684,-158.64043 179.08237,-158.67069 178.93738,-158.69511 C 178.79239,-158.71953 178.64438,-158.73699 178.49633,-158.75327 C 178.20019,-158.78584 177.89844,-158.80173 177.58997,-158.80174 C 177.5022,-158.80172 177.45908,-158.80172 177.4591,-158.80174 C 177.30692,-158.79899 177.1593,-158.7956 177.0132,-158.7872 C 176.86711,-158.7788 176.72186,-158.76733 176.58183,-158.75327 C 175.74175,-158.66895 175.01214,-158.48378 174.39109,-158.19589 C 174.07849,-158.04371 173.77276,-157.85525 173.4702,-157.63366 C 173.06677,-157.33821 172.66833,-156.98136 172.28273,-156.56252 C 172.18633,-156.45781 172.09205,-156.35021 171.99677,-156.23778 C 171.99677,-156.27343 171.96637,-156.3399 171.90469,-156.44135 C 171.84299,-156.5428 171.7518,-156.67636 171.62841,-156.84363 C 171.44331,-157.07806 171.23101,-157.31858 170.99349,-157.55612 C 170.91432,-157.63529 170.8313,-157.71408 170.7463,-157.79361 C 170.65718,-157.86627 170.56175,-157.93347 170.4555,-158.00202 C 170.24298,-158.13912 169.99498,-158.26911 169.71395,-158.38976 C 169.57341,-158.45009 169.4257,-158.50803 169.26804,-158.56425 C 169.14464,-158.60949 169.01886,-158.65149 168.88997,-158.68542 C 168.82555,-158.70238 168.75707,-158.7149 168.69126,-158.72904 C 168.62546,-158.74318 168.55973,-158.7565 168.49255,-158.76782 C 168.35818,-158.79043 168.2204,-158.80982 168.08056,-158.82113 C 167.94073,-158.83244 167.79937,-158.83566 167.65405,-158.83567 z M 146.06644,-158.73873 C 145.61674,-158.73871 145.13733,-158.70989 144.66572,-158.66603 C 142.82308,-158.4631 141.15485,-157.8407 139.66868,-156.80971 C 138.188,-155.77869 137.03616,-154.46511 136.20807,-152.86927 C 135.39644,-151.29534 134.99152,-149.64101 134.99152,-147.89162 C 134.99152,-147.84225 134.99152,-147.79976 134.99152,-147.7559 C 134.99355,-147.5687 135.00024,-147.38255 135.01091,-147.19852 C 139.63642,-147.35146 144.18285,-147.54628 148.64494,-147.78499 L 155.79396,-152.2828 C 155.79202,-152.28738 155.78625,-152.2927 155.78426,-152.29734 C 155.75258,-152.37256 155.71515,-152.45479 155.66793,-152.54938 C 155.66649,-152.55226 155.66454,-152.55618 155.66309,-152.55907 C 155.61484,-152.65526 155.55774,-152.76284 155.49345,-152.87896 C 155.49185,-152.88185 155.49021,-152.88576 155.48861,-152.88865 C 155.47969,-152.90473 155.46875,-152.92551 155.45952,-152.94197 C 155.39937,-153.04905 155.33393,-153.15811 155.2608,-153.28124 C 155.22104,-153.34831 155.17362,-153.42746 155.12994,-153.49935 C 155.0836,-153.57552 155.04011,-153.64557 154.98938,-153.72715 C 154.98657,-153.73168 154.98737,-153.73714 154.98454,-153.74169 C 154.9361,-153.81957 154.88474,-153.89822 154.82944,-153.97918 C 154.82696,-153.98279 154.82224,-153.98526 154.81975,-153.98888 C 154.70505,-154.1561 154.57547,-154.32751 154.432,-154.50748 C 154.42987,-154.51016 154.4293,-154.51449 154.42716,-154.51717 C 154.35678,-154.60528 154.28136,-154.69753 154.20421,-154.7886 C 154.20132,-154.79199 154.19741,-154.79489 154.19451,-154.79829 C 154.17298,-154.82365 154.14871,-154.85025 154.12666,-154.87584 C 154.06581,-154.94628 154.00724,-155.01697 153.94248,-155.0891 C 153.85708,-155.18442 153.76811,-155.27681 153.67591,-155.37506 C 153.6736,-155.37752 153.67337,-155.38229 153.67105,-155.38475 C 153.48425,-155.58356 153.27945,-155.78986 153.06521,-156.00029 C 153.06193,-156.00339 153.05881,-156.0069 153.05552,-156.00999 C 152.8393,-156.21403 152.60454,-156.40826 152.35273,-156.59645 C 152.34916,-156.59911 152.34661,-156.60349 152.34303,-156.60614 C 151.57503,-157.17826 150.64534,-157.67823 149.55129,-158.11834 C 148.44899,-158.51866 147.30034,-158.73871 146.06644,-158.73873 z M 53.516956,-158.66603 C 52.732727,-158.64407 51.941661,-158.56983 51.108101,-158.43823 C 50.258071,-158.30111 49.397096,-158.13935 48.563535,-157.9584 C 47.735441,-157.77741 47.30425,-157.65813 47.254901,-157.61428 L 46.086825,-151.88052 C 46.08996,-151.88366 46.097776,-151.88695 46.101365,-151.89021 L 46.096518,-151.87083 C 46.25555,-152.02986 46.99954,-152.366 48.321195,-152.85957 C 49.626382,-153.35312 50.746455,-153.59143 51.689715,-153.59144 C 51.75551,-153.59143 51.826818,-153.59143 51.898127,-153.59144 C 53.088141,-153.59143 53.951168,-153.42738 54.510548,-153.08737 C 54.579076,-153.04229 54.646216,-152.99687 54.709266,-152.94682 C 54.839211,-152.84473 54.955896,-152.73071 55.063082,-152.60754 C 55.066045,-152.6041 55.069832,-152.6013 55.072775,-152.59784 C 55.075779,-152.59436 55.079484,-152.59166 55.082469,-152.58815 C 55.133783,-152.52727 55.181883,-152.46022 55.227873,-152.39428 C 55.230468,-152.3906 55.234989,-152.38828 55.237566,-152.38459 C 55.283267,-152.31835 55.323159,-152.25234 55.363583,-152.18102 C 55.366513,-152.17593 55.370375,-152.1716 55.373277,-152.16648 C 55.497431,-151.94437 55.594486,-151.69652 55.668931,-151.42493 C 55.806015,-150.95329 55.877327,-150.31007 55.877343,-149.47651 C 55.874796,-149.47905 55.821331,-149.51569 55.736786,-149.57829 C 55.734363,-149.58009 55.729575,-149.58615 55.727092,-149.58799 C 55.628802,-149.66055 55.481347,-149.77014 55.281188,-149.91273 C 55.234006,-149.94716 55.181381,-149.97619 55.130937,-150.00966 C 55.127302,-150.01206 55.124895,-150.01696 55.121244,-150.01936 C 54.73977,-150.27078 54.26754,-150.4965 53.720521,-150.71245 C 53.06791,-150.95922 52.350458,-151.10248 51.544312,-151.12442 C 51.270099,-151.12442 51.13233,-151.12442 51.132334,-151.12442 C 49.854547,-151.12442 48.657681,-150.84337 47.555402,-150.30047 C 47.277677,-150.16469 47.015,-150.01907 46.765376,-149.85941 C 51.649268,-149.36765 56.70017,-148.93531 61.892212,-148.55562 L 61.892212,-151.93869 C 61.892189,-153.32151 61.596888,-154.48693 61.005249,-155.41868 C 60.965747,-155.48128 60.926275,-155.54236 60.884079,-155.60286 C 60.88149,-155.60654 60.876983,-155.60887 60.874385,-155.61255 C 60.851532,-155.64512 60.830168,-155.67752 60.80653,-155.70949 C 60.785993,-155.73711 60.764649,-155.76472 60.743522,-155.79188 C 60.741368,-155.79468 60.740834,-155.79879 60.738676,-155.80158 C 60.693766,-155.85973 60.644734,-155.9196 60.598119,-155.97606 C 60.595176,-155.97961 60.591375,-155.98221 60.588425,-155.98575 C 60.541805,-156.04199 60.496188,-156.096 60.447868,-156.15055 C 60.4448,-156.15399 60.441248,-156.1568 60.438174,-156.16024 C 60.389756,-156.21467 60.342889,-156.26745 60.29277,-156.32018 C 60.289628,-156.32348 60.286226,-156.32659 60.283077,-156.32987 C 60.179444,-156.43846 60.06922,-156.54354 59.958342,-156.64491 C 59.954986,-156.64797 59.952011,-156.65156 59.948649,-156.65461 C 59.894748,-156.70368 59.839463,-156.75264 59.783858,-156.80001 C 59.780363,-156.80298 59.777666,-156.80675 59.774164,-156.80971 C 59.599997,-156.95747 59.417334,-157.09546 59.226477,-157.22653 C 59.22281,-157.22904 59.220456,-157.23373 59.216783,-157.23622 C 58.762044,-157.54722 58.25885,-157.81031 57.709431,-158.02625 C 56.541318,-158.45399 55.277992,-158.66602 53.928933,-158.66603 C 53.797307,-158.66601 53.654045,-158.66602 53.516956,-158.66603 z M 101.93156,-158.66603 C 101.14733,-158.64407 100.36112,-158.56983 99.527544,-158.43823 C 98.677524,-158.30111 97.816534,-158.13935 96.982974,-157.9584 C 96.154874,-157.77741 95.723704,-157.65813 95.674354,-157.61428 L 94.50627,-151.88052 C 94.509407,-151.88366 94.517222,-151.88695 94.520809,-151.89021 L 94.515963,-151.87083 C 94.674994,-152.02986 95.414134,-152.366 96.735794,-152.85957 C 98.040974,-153.35312 99.165894,-153.59143 100.10916,-153.59144 C 100.17495,-153.59143 100.24142,-153.59143 100.31273,-153.59144 C 101.50275,-153.59143 102.37062,-153.42738 102.93,-153.08737 C 102.99852,-153.04229 103.06566,-152.99687 103.12872,-152.94682 C 103.25867,-152.84473 103.37535,-152.73071 103.48253,-152.60754 C 103.48549,-152.6041 103.48928,-152.6013 103.49223,-152.59784 C 103.49523,-152.59436 103.49893,-152.59166 103.50192,-152.58815 C 103.55324,-152.52727 103.60133,-152.46022 103.64733,-152.39428 C 103.68631,-152.33885 103.72357,-152.27884 103.7588,-152.2198 C 103.76672,-152.20636 103.77531,-152.19465 103.78303,-152.18102 C 103.78593,-152.17598 103.78986,-152.17156 103.79273,-152.16648 C 103.83228,-152.09573 103.86975,-152.01927 103.9042,-151.94353 C 103.90575,-151.94017 103.90751,-151.93721 103.90905,-151.93384 C 103.94422,-151.85582 103.97614,-151.77481 104.00598,-151.69149 C 104.00723,-151.68806 104.00959,-151.68525 104.01083,-151.6818 C 104.04051,-151.59815 104.06399,-151.51392 104.08838,-151.42493 C 104.22546,-150.95329 104.29678,-150.31007 104.29679,-149.47651 C 104.29131,-149.48198 104.10096,-149.62754 103.70064,-149.91273 C 103.65345,-149.94716 103.60083,-149.97619 103.55039,-150.00966 C 103.54675,-150.01206 103.54435,-150.01696 103.5407,-150.01936 C 103.15922,-150.27078 102.68699,-150.4965 102.13997,-150.71245 C 101.48736,-150.95922 100.76991,-151.10248 99.963754,-151.12442 C 99.689544,-151.12442 99.546924,-151.12442 99.546934,-151.12442 C 98.269144,-151.12442 97.077114,-150.84337 95.974844,-150.30047 C 94.740936,-149.69721 93.780077,-148.86049 93.105547,-147.78014 C 92.952194,-147.54347 92.817013,-147.29893 92.698417,-147.04827 C 95.413554,-146.97821 98.152564,-146.9229 100.91374,-146.88348 C 100.96572,-146.88805 101.01563,-146.89515 101.06883,-146.89802 C 101.15656,-146.89801 101.20938,-146.89801 101.20938,-146.89802 C 101.34775,-146.89802 101.47981,-146.88693 101.61167,-146.87378 C 104.48992,-146.83548 107.38896,-146.81966 110.31166,-146.81563 L 110.31166,-151.93869 C 110.31164,-153.32151 110.01634,-154.48693 109.4247,-155.41868 C 109.38519,-155.48128 109.34573,-155.54236 109.30353,-155.60286 C 109.30094,-155.60654 109.29643,-155.60887 109.29384,-155.61255 C 109.25148,-155.67293 109.20803,-155.73361 109.16298,-155.79188 C 109.16021,-155.79546 109.15605,-155.798 109.15328,-155.80158 C 109.1084,-155.85969 109.06416,-155.91964 109.01757,-155.97606 C 109.01463,-155.97961 109.01083,-155.98221 109.00788,-155.98575 C 108.96125,-156.04199 108.91564,-156.096 108.86732,-156.15055 C 108.86429,-156.15394 108.86066,-156.15684 108.85762,-156.16024 C 108.85149,-156.16713 108.8444,-156.17276 108.83824,-156.17963 C 108.79322,-156.22961 108.74899,-156.28134 108.70253,-156.32987 C 108.59889,-156.43846 108.48867,-156.54354 108.37779,-156.64491 C 108.37444,-156.64797 108.37146,-156.65156 108.36809,-156.65461 C 108.3142,-156.70368 108.25891,-156.75264 108.20331,-156.80001 C 108.19981,-156.80298 108.19712,-156.80675 108.19362,-156.80971 C 108.07866,-156.90723 107.95718,-157.00057 107.83496,-157.09082 C 107.83129,-157.09352 107.82893,-157.09783 107.82526,-157.10052 C 107.76589,-157.14418 107.707,-157.18458 107.64592,-157.22653 C 107.64226,-157.22904 107.6399,-157.23373 107.63623,-157.23622 C 107.18149,-157.54722 106.6783,-157.81031 106.12888,-158.02625 C 104.96078,-158.45399 103.69744,-158.66602 102.34839,-158.66603 C 102.21675,-158.66601 102.06865,-158.66602 101.93156,-158.66603 z M 145.91134,-153.27155 C 146.542,-153.27154 147.08787,-153.17855 147.51563,-153.01951 C 147.90538,-152.87 148.16952,-152.74905 148.3299,-152.63662 L 140.96277,-148.01278 C 140.9663,-149.37805 141.46471,-150.61557 142.4265,-151.68665 C 143.36974,-152.74506 144.51839,-153.27154 145.91134,-153.27155 z"
   id="path4392"
   inkscape:export-filename="/home/kd/Documents/sponsors_brochure/img/logo_akademy.png"
   inkscape:export-xdpi="100.00878"
   inkscape:export-ydpi="100.00878" /></svg>