------------------------------------------------------------------------
r1085154 | mwolff | 2010-02-04 13:11:53 +0000 (Thu, 04 Feb 2010) | 1 line

backport: get default colors for the template handler from the current color scheme (fixes color issues for dark schemes)
------------------------------------------------------------------------
r1085194 | winterz | 2010-02-04 15:31:53 +0000 (Thu, 04 Feb 2010) | 2 lines

don't exclude _p.h files by default. leave that up to each project to decide.

------------------------------------------------------------------------
r1085216 | adawit | 2010-02-04 16:54:11 +0000 (Thu, 04 Feb 2010) | 3 lines

Do not navigate to the clipboard url when a user middle clicks on the scrollbar.
BUG:211302

------------------------------------------------------------------------
r1085604 | skelly | 2010-02-05 14:47:06 +0000 (Fri, 05 Feb 2010) | 1 line

Backport the bugfixed selection proxy model from trunk.
------------------------------------------------------------------------
r1085627 | mwolff | 2010-02-05 16:35:09 +0000 (Fri, 05 Feb 2010) | 1 line

backport: shutdown the katetemplatehandler on document reload, fixes crash
------------------------------------------------------------------------
r1085628 | mwolff | 2010-02-05 16:35:51 +0000 (Fri, 05 Feb 2010) | 2 lines

backport: make sure the bounding range in a katesmart region stays internal to make sure it doesn't get deleted on document reload (which can result in crashes in certain circumstances)

------------------------------------------------------------------------
r1086506 | dafre | 2010-02-07 14:27:54 +0000 (Sun, 07 Feb 2010) | 6 lines

CCMAIL: mueller@kde.org

Fixing KAuth's Polkit-qt-1 backend to make it work (this commit is already in trunk). Polkit-1 does the authorization routine inside the helper,
therefore this change is needed to make the backend work. Dirk, can you please put this commit in the 4.4.0 tag? It is quite critical.


------------------------------------------------------------------------
r1087233 | mwolff | 2010-02-08 17:16:45 +0000 (Mon, 08 Feb 2010) | 1 line

backport: allow whitespace except for newlines in template variables
------------------------------------------------------------------------
r1087530 | trueg | 2010-02-09 10:11:26 +0000 (Tue, 09 Feb 2010) | 4 lines

Backport of mem/dbus connection leak.

CCMAIL: faure@kde.org, release-team@kde.org, thiago@kde.org

------------------------------------------------------------------------
r1087561 | dfaure | 2010-02-09 11:14:23 +0000 (Tue, 09 Feb 2010) | 3 lines

Actually create only one dbus connection per thread, and unregister when the thread exits.
Reviewed by Sebastian Trueg.

------------------------------------------------------------------------
r1087650 | mueller | 2010-02-09 12:14:21 +0000 (Tue, 09 Feb 2010) | 3 lines

merge last minute api changes for the highlighterinterface,
my assumption is that the kdebindings are not affected

------------------------------------------------------------------------
r1087802 | adawit | 2010-02-09 15:54:17 +0000 (Tue, 09 Feb 2010) | 1 line

Wrap literal meta-data text with QLatin1String
------------------------------------------------------------------------
r1087810 | dfaure | 2010-02-09 16:04:25 +0000 (Tue, 09 Feb 2010) | 2 lines

Backport: Fix erroneous values due to overflow, patch by Bruce Cran.

------------------------------------------------------------------------
r1087822 | rkcosta | 2010-02-09 16:39:33 +0000 (Tue, 09 Feb 2010) | 7 lines

Backport r1087820.

Associate a widget to the action collections, otherwise the
shortcuts defined will not work as expected.

CCBUG: 225744

------------------------------------------------------------------------
r1087856 | lueck | 2010-02-09 17:22:14 +0000 (Tue, 09 Feb 2010) | 1 line

doc backport from trunk
------------------------------------------------------------------------
r1088091 | adawit | 2010-02-10 07:07:13 +0000 (Wed, 10 Feb 2010) | 5 lines

Fixed bug# 224857 correctly and removed the temporary workaround for
4.4.1.

BUG: 224857

------------------------------------------------------------------------
r1088114 | aseigo | 2010-02-10 08:18:44 +0000 (Wed, 10 Feb 2010) | 3 lines

ensure the icon has an action before using it
BUG:224944

------------------------------------------------------------------------
r1088123 | aseigo | 2010-02-10 08:48:20 +0000 (Wed, 10 Feb 2010) | 3 lines

catch the case where we have a containment, but the containment is not in a corona
CCBUG:214460

------------------------------------------------------------------------
r1088124 | aseigo | 2010-02-10 08:49:00 +0000 (Wed, 10 Feb 2010) | 3 lines

catch the case where we have a containment, but the containment is not in a corona
CCBUG:214460

------------------------------------------------------------------------
r1088132 | mludwig | 2010-02-10 09:42:17 +0000 (Wed, 10 Feb 2010) | 5 lines

- Don't pass an empty string to Sonnet as this can lead to a bad allocation exception.
- Fix a problem related to the detection of matching prefixes in 'KateSpellCheckManager::spellCheckWrtHighlightingRanges'.

Back-port of commit 1088130.

------------------------------------------------------------------------
r1088348 | dafre | 2010-02-10 15:34:26 +0000 (Wed, 10 Feb 2010) | 2 lines

Backport API doc fix r1088343

------------------------------------------------------------------------
r1088537 | dfaure | 2010-02-11 07:54:32 +0000 (Thu, 11 Feb 2010) | 6 lines

Fix crash in KDirWatch when using a messagebox in a slot connected to dirty(),
and in that nested event loop, doing things like getting another notification
and removing/adding watches.
Fixed for: 4.4.1
BUG: 220153

------------------------------------------------------------------------
r1088859 | jlayt | 2010-02-11 20:08:00 +0000 (Thu, 11 Feb 2010) | 5 lines

Improve CUPS detection routine to always work, even when using remote server.

This relys on the behaviour of QPrinter::numCopies() always returning 1 if
Qt is in CUPS mode, and the real number if in lpr mode.

------------------------------------------------------------------------
r1088931 | aseigo | 2010-02-11 22:53:42 +0000 (Thu, 11 Feb 2010) | 3 lines

we should only muck with the minimum sizes of the popup applet when iconified if it is actually using an icon; otherwise we leave it up to the applet itself to do this properly as it normally would have to
CCBUG:226391

------------------------------------------------------------------------
r1089015 | dfaure | 2010-02-12 07:51:10 +0000 (Fri, 12 Feb 2010) | 11 lines

The temporary foo.tar tempfile is useful when reading, but not when writing a new
tar file from scratch.
By using the standard route (writing into the final iodevice directly) instead
of the tempfile, the .tar.gz WriteOnly mode is much faster:
// With    tempfile: 1.3-1.7 ms, 2555089 instr. loads
// Without tempfile:    0.87 ms,  987915 instr. loads
=> 45-60% performance improvement and reducing I/O.
Also fixed ReadWrite mode not writing back the changes (!).

Internal issue KONT-20, kolab rt #5817.

------------------------------------------------------------------------
r1089160 | ggarand | 2010-02-12 15:41:35 +0000 (Fri, 12 Feb 2010) | 12 lines

automatically merged revision 1089159:
Critical performance fix:

There is a huge difference of behaviour between DEBUG and RELEASE
builds of Qt 4.6, that breaks scrolling in KHTML.

Using QWidget::scroll() on a widget that doesn't have WA_OpaquePaintEvent
attribute set works just fine in Debug, but completely breaks down in
Release, causing the whole view to get repainted always.


CCMAIL: kde-packager@kde.org
------------------------------------------------------------------------
r1089161 | ggarand | 2010-02-12 15:42:19 +0000 (Fri, 12 Feb 2010) | 6 lines

automatically merged revision 1088986:
workaround the cursor not blinking in QLineEdit in Qt 4.6.1.

the event propagator should actually be fixed to go through event()
in all cases, but this is going to take some significant testing/cleanup,
and figuring out if this can work fine with the non-redirected code path.
------------------------------------------------------------------------
r1089162 | ggarand | 2010-02-12 15:45:47 +0000 (Fri, 12 Feb 2010) | 3 lines

automatically merged revision 1088983:
fix occasional crash when laying out inline flow children as
repaintDuringLayout() would access inline boxes we just deleted.
------------------------------------------------------------------------
r1089168 | vkrause | 2010-02-12 16:05:20 +0000 (Fri, 12 Feb 2010) | 2 lines

build with -pedantic

------------------------------------------------------------------------
r1089179 | ggarand | 2010-02-12 16:33:47 +0000 (Fri, 12 Feb 2010) | 10 lines

might want that too... even the dot is using such broken expressions!
----------
automatically merged revision 1088985:
rewrite a very common and extremely inefficient regular expression pattern
in a form that is equivalent but does not require a recursion.

this is several order of magnitude faster in any RE engine and prevents
libpcre from eating the stack.

BUG: 191736
------------------------------------------------------------------------
r1089397 | mludwig | 2010-02-13 08:29:04 +0000 (Sat, 13 Feb 2010) | 5 lines

Fix the problem that the words at the beginning or at the end of a document
are not re-checked when text is removed at those two positions.

Back-port of revision 1089396.

------------------------------------------------------------------------
r1089408 | mludwig | 2010-02-13 09:19:26 +0000 (Sat, 13 Feb 2010) | 4 lines

Also allow empty visible intersections for text insertion.

Back-port of revision 1089406.

------------------------------------------------------------------------
r1089483 | trueg | 2010-02-13 11:19:09 +0000 (Sat, 13 Feb 2010) | 1 line

Backport: use a static counter to make sure we use unique names
------------------------------------------------------------------------
r1089655 | adawit | 2010-02-13 16:47:12 +0000 (Sat, 13 Feb 2010) | 2 lines

BACKPORT: Use the new QWebElement API to parse forms instead of javascript.

------------------------------------------------------------------------
r1089692 | dhaumann | 2010-02-13 18:56:05 +0000 (Sat, 13 Feb 2010) | 8 lines

backport SVN commit 1089690 by dhaumann:

fix: share a KCompletion object between all KateCmdLineEdits

This will make it possible to easily add or remove completion items
such as command line scripts or plugin commands, and the command
lines in all KTextEditor::View instances will be up-to-date.

------------------------------------------------------------------------
r1089697 | dhaumann | 2010-02-13 19:01:08 +0000 (Sat, 13 Feb 2010) | 5 lines

backport SVN commit 1089691 by dhaumann:

fix: make reload-scripts work with new functions
No new i18n-strings.

------------------------------------------------------------------------
r1089755 | porten | 2010-02-13 22:36:18 +0000 (Sat, 13 Feb 2010) | 5 lines

Merged revision 1089753:
Applying Maksim's fix for .innerHTML value of <script> elements.

Fixes display of JIRA dashboard and
BUG: 203149
------------------------------------------------------------------------
r1089807 | scripty | 2010-02-14 04:23:16 +0000 (Sun, 14 Feb 2010) | 1 line

SVN_SILENT made messages (.desktop file)
------------------------------------------------------------------------
r1089861 | dhaumann | 2010-02-14 09:55:40 +0000 (Sun, 14 Feb 2010) | 4 lines

backport: fix regression with selection + autobrackets
Will be in KDE 4.4.1 again.
CCBUG: 222506

------------------------------------------------------------------------
r1090074 | dhaumann | 2010-02-14 15:57:40 +0000 (Sun, 14 Feb 2010) | 10 lines

backport SVN commit 1089920 by ossi:

kinda finish the qt4 port

several string length overflows were still in the code, based on the
qt3-ish assumption that these will just return zero. so add the
missing length checks.
this also makes the parser stricter about errors in \c and \x
sequences.

------------------------------------------------------------------------
r1090088 | mludwig | 2010-02-14 16:21:03 +0000 (Sun, 14 Feb 2010) | 6 lines

Don't access 'm_currentMisspelledRange' anymore when a spelling menu
object is destroyed as it might point to a range that has already been
deleted.

Back-port of commit 1090082.

------------------------------------------------------------------------
r1090089 | dhaumann | 2010-02-14 16:22:42 +0000 (Sun, 14 Feb 2010) | 2 lines

backport: add suport for quoting of text in command line scripts

------------------------------------------------------------------------
r1090153 | dhaumann | 2010-02-14 19:07:51 +0000 (Sun, 14 Feb 2010) | 4 lines

backport SVN commit 1090151 by dhaumann for KDE 4.4.1:
fix crash in removeTrailingSpaces, if undo/redo is active.
CCBUG: 152203

------------------------------------------------------------------------
r1090156 | porten | 2010-02-14 19:16:14 +0000 (Sun, 14 Feb 2010) | 2 lines

Merged revision 1090155:
Escape non-breaking space for Text node serialization.
------------------------------------------------------------------------
r1090190 | porten | 2010-02-14 20:46:34 +0000 (Sun, 14 Feb 2010) | 5 lines

Merged revision 1090189:
More exceptions for escaping in HTML conversion.

Compared to what the HTML 5 spec and other browsers do. No clear picture.
Affects both .innerHTML property and clipboard copies.
------------------------------------------------------------------------
r1090346 | adawit | 2010-02-15 04:48:02 +0000 (Mon, 15 Feb 2010) | 9 lines

BACKPORT the following fixes from trunk:
- Make sure a url that does not contain a path component at this point is
  handled the same way as it is in KRun, i.e. do a stat on the url. This fixes
  the problem where clicking on links such as "ftp://ftp.kde.org" produce an
  error message in KWebPage.

- Emit the QNetworkReply::error when an error is encountered, simply calling setError
  does not result in that signal being emitted.

------------------------------------------------------------------------
r1090599 | mwolff | 2010-02-15 16:09:37 +0000 (Mon, 15 Feb 2010) | 2 lines

backport: fix jumpToFinalCursorPosition work again for snippets with only a cursor in them and no editable range

------------------------------------------------------------------------
r1090690 | mitchell | 2010-02-15 19:55:44 +0000 (Mon, 15 Feb 2010) | 2 lines

Backport README url fix to 4.4

------------------------------------------------------------------------
r1090729 | dfaure | 2010-02-15 22:03:34 +0000 (Mon, 15 Feb 2010) | 4 lines

Fix the "kdirwatch crash on re-entrancy from the slots" by emitting the signals in a delayed manner.
Fixed for: 4.4.1
BUG: 224229 208486 226674 222547

------------------------------------------------------------------------
r1090789 | aseigo | 2010-02-16 01:08:57 +0000 (Tue, 16 Feb 2010) | 2 lines

set the view on the page; this is a but in QtWebkit, but at least this prevents crashing for now

------------------------------------------------------------------------
r1090802 | aseigo | 2010-02-16 02:40:19 +0000 (Tue, 16 Feb 2010) | 3 lines

initialComponents is unsigned, so can't -1 from it; just return if the components list is empty
CCBUG:227118

------------------------------------------------------------------------
r1090828 | aseigo | 2010-02-16 06:47:37 +0000 (Tue, 16 Feb 2010) | 3 lines

in case a script engine does not add the standard pages (which is a bug in the script engine), at least don't crash
BUG:226823

------------------------------------------------------------------------
r1090919 | trueg | 2010-02-16 10:50:54 +0000 (Tue, 16 Feb 2010) | 4 lines

Backport: Do not use crappy inference for file/folder type. There is no need and it slows down searches a lot.

CCMAIL: clecureuil@mandriva.com

------------------------------------------------------------------------
r1090936 | ehamberg | 2010-02-16 11:31:47 +0000 (Tue, 16 Feb 2010) | 6 lines

backport of 1090796:
take added lines into account when replacing a pattern with newline(s)           

CCBUG: 129494


------------------------------------------------------------------------
r1090977 | gladhorn | 2010-02-16 13:13:56 +0000 (Tue, 16 Feb 2010) | 6 lines

backport r1090976 for kde 4.4.1

Do not close the ghns dialog when pressing enter in the search label.
CCBUG: 227150


------------------------------------------------------------------------
r1090980 | mwolff | 2010-02-16 13:27:05 +0000 (Tue, 16 Feb 2010) | 1 line

backport r1090123 by jowenn: do not insert empty templates
------------------------------------------------------------------------
r1090982 | mwolff | 2010-02-16 13:34:11 +0000 (Tue, 16 Feb 2010) | 1 line

backport r1090231 by jowenn: reduce duplicate code and return sensible hlmode information for cursors at lineendings
------------------------------------------------------------------------
r1091021 | gladhorn | 2010-02-16 14:54:05 +0000 (Tue, 16 Feb 2010) | 6 lines

backport r1091020 for KDE SC 4.4.1

for static provider, only return entries that are included in the current search instead of everything twice
CCBUG: 227150


------------------------------------------------------------------------
r1091061 | annma | 2010-02-16 16:20:11 +0000 (Tue, 16 Feb 2010) | 2 lines

backport 1091033 

------------------------------------------------------------------------
r1091094 | dhaumann | 2010-02-16 17:26:48 +0000 (Tue, 16 Feb 2010) | 4 lines

fix crash: Invalid KateScript can lead to crash

CCBUG: 223624

------------------------------------------------------------------------
r1091125 | mwolff | 2010-02-16 18:27:54 +0000 (Tue, 16 Feb 2010) | 4 lines

backport: always remove views, also in singleViewMode
CCBUG: 225746


------------------------------------------------------------------------
r1091445 | nlecureuil | 2010-02-16 22:04:22 +0000 (Tue, 16 Feb 2010) | 2 lines

Backport commit 1091434

------------------------------------------------------------------------
r1091736 | dhaumann | 2010-02-17 12:24:32 +0000 (Wed, 17 Feb 2010) | 3 lines

backport: fix wrong init of editTagLineStart
CCBUG: 227293

------------------------------------------------------------------------
r1091753 | trueg | 2010-02-17 13:12:16 +0000 (Wed, 17 Feb 2010) | 4 lines

Backport: serous crash fix for Dolphin.

CCMAIL: nlecureuil@mandriva.com

------------------------------------------------------------------------
r1091879 | dhaumann | 2010-02-17 19:32:42 +0000 (Wed, 17 Feb 2010) | 5 lines

backport: remove the power user mode setting, if the part is disallowed
to have it, like in kate, there it was visible but had no effect

CCBUG: 227383

------------------------------------------------------------------------
r1091883 | fdekruijf | 2010-02-17 19:44:53 +0000 (Wed, 17 Feb 2010) | 2 lines

Freek toegevoegd

------------------------------------------------------------------------
r1091898 | fdekruijf | 2010-02-17 20:38:53 +0000 (Wed, 17 Feb 2010) | 2 lines

Hannie toegevoegd

------------------------------------------------------------------------
r1091941 | dfaure | 2010-02-17 22:25:19 +0000 (Wed, 17 Feb 2010) | 6 lines

Backport r1091923: Fix the findSubEntry crash when saving over a watched file
(see the 10-line explanation at the top of testMoveTo())
and improve the unittests for kdirwatch.
Fixed for: 4.4.1
BUG: 222974

------------------------------------------------------------------------
r1091954 | dhaumann | 2010-02-17 23:06:16 +0000 (Wed, 17 Feb 2010) | 5 lines

backport fix: query the host application for active view. If available, use it
to set the current highlighting in the config dialog

CCBUG: 227141

------------------------------------------------------------------------
r1091981 | dhaumann | 2010-02-17 23:46:16 +0000 (Wed, 17 Feb 2010) | 5 lines

backport SVN commit 1091977 by cullmann:

just make the cursors always valid instead doing random asserts
CCBUG: 227449

------------------------------------------------------------------------
r1092090 | mart | 2010-02-18 09:29:10 +0000 (Thu, 18 Feb 2010) | 4 lines

backport a fix on remote dataengines:
emit sourceAdded() when has to be
setData() was incorrect

------------------------------------------------------------------------
r1092102 | mart | 2010-02-18 10:07:01 +0000 (Thu, 18 Feb 2010) | 2 lines

backport forced polling of remote dataengines: only way to make them work at the moment

------------------------------------------------------------------------
r1092117 | dhaumann | 2010-02-18 11:11:33 +0000 (Thu, 18 Feb 2010) | 1 line

hide empty scripts config tab in 4.4 branch
------------------------------------------------------------------------
r1092455 | adawit | 2010-02-18 23:44:09 +0000 (Thu, 18 Feb 2010) | 5 lines

BACKPORTED:
- Fix a weird random crash when navigating in facebook.com.
- Factored out the code that catches middle clicks on pages
  to navigate to the url in the clipboard.

------------------------------------------------------------------------
r1092653 | fdekruijf | 2010-02-19 11:21:18 +0000 (Fri, 19 Feb 2010) | 2 lines

hannie added

------------------------------------------------------------------------
r1092676 | dhaumann | 2010-02-19 11:33:47 +0000 (Fri, 19 Feb 2010) | 5 lines

backport SVN commit 1092464 by cullmann:

use right dialog parent for closing question dialog
CCBUG: 187570

------------------------------------------------------------------------
r1092695 | mwolff | 2010-02-19 11:50:43 +0000 (Fri, 19 Feb 2010) | 1 line

backport r1092654: add highlighting mode related API
------------------------------------------------------------------------
r1092700 | dhaumann | 2010-02-19 11:55:02 +0000 (Fri, 19 Feb 2010) | 4 lines

backport SVN commit 1092691 by cullmann:
remove wrong painted cursor after loading of small files
CCBUG: 216194

------------------------------------------------------------------------
r1092712 | gateau | 2010-02-19 12:05:05 +0000 (Fri, 19 Feb 2010) | 3 lines

Fix funky look of tray icon bottom half on 64bit machines

CCMAIL:plasma-devel@kde.org
------------------------------------------------------------------------
r1092901 | jlayt | 2010-02-19 17:34:51 +0000 (Fri, 19 Feb 2010) | 2 lines

Add i18n context as requested on i18n list.

------------------------------------------------------------------------
r1092982 | mludwig | 2010-02-19 22:09:41 +0000 (Fri, 19 Feb 2010) | 4 lines

Use QChar to specify characters for the character detection rules.

Backport of revision 1092981.

------------------------------------------------------------------------
r1093006 | dfaure | 2010-02-19 23:29:18 +0000 (Fri, 19 Feb 2010) | 5 lines

Fix detection of "the file I'm watching, has been deleted and recreated immediately" (e.g. the /etc/localtime case).
This also removes the code that was crashing in bug 222204.
Fixed for: 4.4.1
BUG: 222204

------------------------------------------------------------------------
r1093022 | mpyne | 2010-02-20 00:24:48 +0000 (Sat, 20 Feb 2010) | 2 lines

Backport docs.kde.org stylesheet changes to 4.4 since 4.4 also includes new style docs.

------------------------------------------------------------------------
r1093035 | dhaumann | 2010-02-20 01:07:01 +0000 (Sat, 20 Feb 2010) | 2 lines

make base class virtual...

------------------------------------------------------------------------
r1093036 | ggarand | 2010-02-20 01:11:42 +0000 (Sat, 20 Feb 2010) | 2 lines

automatically merged revision 1093031:
Typo fix: setNormalYeldDelay() -> setNormalYieldDelay()
------------------------------------------------------------------------
r1093037 | ggarand | 2010-02-20 01:13:02 +0000 (Sat, 20 Feb 2010) | 7 lines

automatically merged revision 1090000:
Do not display scroll bars on textarea elements when not necessary.
Match other browsers behaviour.
Approved by Germain.

BUG: 221830
CCBUG: 173585
------------------------------------------------------------------------
r1093038 | ggarand | 2010-02-20 01:14:20 +0000 (Sat, 20 Feb 2010) | 6 lines

automatically merged revision 1089665:
always accept key events here. It's the end of the road : we don't
want notify() to let them percolate to the view as we already went there.

fixes arrow down keypress skipping entries in google's main search page
completion popup.
------------------------------------------------------------------------
r1093039 | ggarand | 2010-02-20 01:15:10 +0000 (Sat, 20 Feb 2010) | 10 lines

automatically merged revision 1089664:
mitigate textarea selection extension problem by clamping
the mouse move event to the widget rect, so that the
selection isn't reset when you leave the widget rect while selecting.

at least you can now extend+scroll from top to bottom (selecting
from bottom to top still doesn't scroll properly though.)

possible turnaround would be to send a mousewheel event in the appropriate
direction when the mouse event is outside the rect..
------------------------------------------------------------------------
r1093040 | ggarand | 2010-02-20 01:16:59 +0000 (Sat, 20 Feb 2010) | 4 lines

automatically merged revision 1089663:
fix access keys not being de-activable when a form element has input focus.

BUG: 210029
------------------------------------------------------------------------
r1093041 | ggarand | 2010-02-20 01:17:46 +0000 (Sat, 20 Feb 2010) | 3 lines

automatically merged revision 1089661:
don't let a form widget keep a blinking cursor when
the focus is changed to an external widget (e.g. the location bar)
------------------------------------------------------------------------
r1093042 | ggarand | 2010-02-20 01:18:10 +0000 (Sat, 20 Feb 2010) | 5 lines

automatically merged revision 1089662:
fix access keys being displayed only for the visible part of the page,
fix scrolling while access keys are displayed producing artifacts

BUG: 219306
------------------------------------------------------------------------
r1093225 | ehamberg | 2010-02-20 11:32:51 +0000 (Sat, 20 Feb 2010) | 5 lines

backport r1082373: correctly indent line after 'cc'

BUG: 227794


------------------------------------------------------------------------
r1093330 | hpereiradacosta | 2010-02-20 16:58:37 +0000 (Sat, 20 Feb 2010) | 4 lines

Backport: r1093328
Check on button state (On/Off) when chosing which icon is to be drawn in a push button.
CCBUG: 227685

------------------------------------------------------------------------
r1093385 | carewolf | 2010-02-20 18:36:55 +0000 (Sat, 20 Feb 2010) | 3 lines

Backporting c1087713 and c1087753, speeding up CSS text-shadow like heavily used on kde.org


------------------------------------------------------------------------
r1093469 | adawit | 2010-02-20 23:37:03 +0000 (Sat, 20 Feb 2010) | 7 lines

- Updated the 'content-disposition' meta data. It has been split into
  two and the old one no longer works.

  ** Please update this file if and when you change meta data values. **

CCMAIL:kde-core-devel@kde.org

------------------------------------------------------------------------
r1093603 | scripty | 2010-02-21 04:28:32 +0000 (Sun, 21 Feb 2010) | 1 line

SVN_SILENT made messages (.desktop file)
------------------------------------------------------------------------
r1093810 | djarvie | 2010-02-21 13:55:13 +0000 (Sun, 21 Feb 2010) | 4 lines

Ensure that ktimezoned is running before reading the current local time zone.

Thanks to David Faure.

------------------------------------------------------------------------
r1093886 | ppenz | 2010-02-21 17:18:47 +0000 (Sun, 21 Feb 2010) | 5 lines

Backport of SVN commit  1093884 (should be part of KDE SC 4.4.1): Fix sorting issues of bugs 181211 and 201101. Thanks to Todd for the patch!

CCBUG: 201101
CCBUG: 181211
CCMAIL: toddrme2178@gmail.com
------------------------------------------------------------------------
r1094017 | mludwig | 2010-02-21 22:32:39 +0000 (Sun, 21 Feb 2010) | 7 lines

Handle on-the-fly spell checking of "doesn't", "isn't", etc correctly.

Note: QTextBoundaryFinder should ideally be used for this, but Qt bug 6498
hasn't been fixed yet.

Back-port of commit 1094016.

------------------------------------------------------------------------
r1094032 | fredrik | 2010-02-21 23:17:01 +0000 (Sun, 21 Feb 2010) | 7 lines

Backport r1094031:

Avoid hitting an assert when drawing a dashed or dotted border arc with
a radius that's smaller than or equal to the border width.

Thanks to Tommi Tervo for debugging.

------------------------------------------------------------------------
r1094053 | adawit | 2010-02-22 01:02:20 +0000 (Mon, 22 Feb 2010) | 1 line

Make sure the unit test does not fail when running make test
------------------------------------------------------------------------
r1094120 | adawit | 2010-02-22 08:58:18 +0000 (Mon, 22 Feb 2010) | 2 lines

Set the windowId when creating a KWebWallet instance.

------------------------------------------------------------------------
r1094124 | adawit | 2010-02-22 09:08:00 +0000 (Mon, 22 Feb 2010) | 1 line

Removed unnecessary header file includes
------------------------------------------------------------------------
r1094364 | aseigo | 2010-02-22 16:32:43 +0000 (Mon, 22 Feb 2010) | 2 lines

X-KDE-ParentApp can also be empty, not just not there

------------------------------------------------------------------------
r1094408 | freininghaus | 2010-02-22 18:10:46 +0000 (Mon, 22 Feb 2010) | 7 lines

Make it possible to set the maximum size for editing in
KFileItemDelegate also if the icon is not above or below the text.

This will be in KDE SC 4.4.1.

CCBUG: 226666

------------------------------------------------------------------------
r1094488 | ggarand | 2010-02-22 21:06:24 +0000 (Mon, 22 Feb 2010) | 8 lines

automatically merged revision 1094429:
.rowspan="" should map to rowspan=1, not rowspan=0
  avoids a crash on xmpp.org pages

.only actually enables the HTML 4.01 meaning of colspan/rowspan zero in
  standard/almost-standard mode matching Gecko engines

CCBUG: 204297
------------------------------------------------------------------------
r1094490 | ggarand | 2010-02-22 21:06:55 +0000 (Mon, 22 Feb 2010) | 2 lines

automatically merged revision 1094430:
really big tables could overflow those
------------------------------------------------------------------------
r1094493 | ggarand | 2010-02-22 21:07:48 +0000 (Mon, 22 Feb 2010) | 2 lines

automatically merged revision 1094432:
avoid doing any unneeded work in scrollToOffset when the offset ends up
------------------------------------------------------------------------
r1094495 | ggarand | 2010-02-22 21:08:46 +0000 (Mon, 22 Feb 2010) | 12 lines

automatically merged revision 1094434:
InlineBox::deleteLine shouldn't try to remove() the line box before
disposing of it.

This causes crashes in release mode because remove() will call to a
possibly invalid parent (this parent-is-invalid circumstance isn't fully
clear to me, though), the link to which is only nulled out in
Debug mode.

Let's play this low risk : align Release on Debug for branch backport...

BUG: 193717
------------------------------------------------------------------------
r1094496 | ggarand | 2010-02-22 21:09:27 +0000 (Mon, 22 Feb 2010) | 7 lines

automatically merged revision 1094436:
let's grab more stack room if the operating system agrees.
this will let really ill-designed regexps match +/-32Kb in the worst case
(recursion at each char).

Regular expressions unable to perform their function in such conditions
deserve to die a preposterous death.
------------------------------------------------------------------------
r1094500 | jlayt | 2010-02-22 21:25:03 +0000 (Mon, 22 Feb 2010) | 19 lines

Fix Hebrew calendar dates formatted in Hebrew language.

Backport of commit 1089657:

Fix and improve Hebrew date string handling.

Restore Hebrew numbers accidentally broken in 4.4.0

Fix roundtrip of numbers <-> strings when thousands digit required

Add lots of documentation as to what it does and why

Note in 4.4 the Hebrew number code is in the base class, in 4.5 we now have a
shared-d model which allows it to be in KCalendarSystemHebrewPrivate.

Note I couldn't get the unit tests to find "he" in 4.4, they work OK in trunk,
however I have manually confirmed it works using gui stuff.


------------------------------------------------------------------------
r1094597 | adawit | 2010-02-22 23:49:19 +0000 (Mon, 22 Feb 2010) | 1 line

Reduce debug output noise and make proper comparison when setting the ConnectionEncryptedAttribute flag
------------------------------------------------------------------------
r1094607 | ilic | 2010-02-23 00:37:50 +0000 (Tue, 23 Feb 2010) | 1 line

Two new mappings for dialect hybridization. (bport: 1094606)
------------------------------------------------------------------------
r1094615 | ilic | 2010-02-23 00:52:51 +0000 (Tue, 23 Feb 2010) | 1 line

New mapping for dialect hybridization. (bport: 1094614)
------------------------------------------------------------------------
r1094726 | scripty | 2010-02-23 04:36:34 +0000 (Tue, 23 Feb 2010) | 1 line

SVN_SILENT made messages (.desktop file)
------------------------------------------------------------------------
r1094741 | dakon | 2010-02-23 07:06:10 +0000 (Tue, 23 Feb 2010) | 4 lines

Backport the Content-Disposition improvements from trunk. No objections on kde-core-devel

CCMAIL:julian.reschke@gmx.de

------------------------------------------------------------------------
r1094777 | dfaure | 2010-02-23 08:47:23 +0000 (Tue, 23 Feb 2010) | 2 lines

Fix for systems with sh in /usr/bin/sh

------------------------------------------------------------------------
r1094802 | trueg | 2010-02-23 09:20:17 +0000 (Tue, 23 Feb 2010) | 1 line

Backport: Added a warning about how FileQuery will only return files and folders as results.
------------------------------------------------------------------------
r1095239 | woebbe | 2010-02-23 21:18:45 +0000 (Tue, 23 Feb 2010) | 2 lines

lets tests also work in release mode (don't open files in Q_ASSERT)

------------------------------------------------------------------------
r1095274 | orlovich | 2010-02-23 22:31:53 +0000 (Tue, 23 Feb 2010) | 2 lines

Fix Win32 build problem reported by SaroEngels.

------------------------------------------------------------------------
r1095279 | aseigo | 2010-02-23 22:40:54 +0000 (Tue, 23 Feb 2010) | 2 lines

missing property

------------------------------------------------------------------------
r1095287 | rdale | 2010-02-23 22:50:11 +0000 (Tue, 23 Feb 2010) | 3 lines

* Add an Applet::init() call in Containment::init() so that scripting
containment instances are initialized correctly

------------------------------------------------------------------------
r1095291 | aseigo | 2010-02-23 23:04:25 +0000 (Tue, 23 Feb 2010) | 2 lines

make links clicking and text selection actually work

------------------------------------------------------------------------
r1095296 | mludwig | 2010-02-23 23:21:37 +0000 (Tue, 23 Feb 2010) | 2 lines

Update to the latest version from trunk in order to back-port commit 1095284.

------------------------------------------------------------------------
r1095298 | aseigo | 2010-02-23 23:22:39 +0000 (Tue, 23 Feb 2010) | 2 lines

set the svg even if the meter type hasn't bee explicitly set

------------------------------------------------------------------------
r1095315 | gladhorn | 2010-02-24 00:32:19 +0000 (Wed, 24 Feb 2010) | 1 line

backport 1095311, 1095314 - only offer scripted plasmoids, use new api
------------------------------------------------------------------------
r1095342 | ggarand | 2010-02-24 02:14:43 +0000 (Wed, 24 Feb 2010) | 14 lines

automatically merged revision 1088979:
great, looks like these two Qt regressions have finally been fixed,
so we can enable back the optimized code and close all the printing bugs
that closing/restoring the QPainter triggered

I'll do that in two commits so that problems can be pin-pointed :

1) stop ending the QPainter before painting widgets to buffers,
 it's not needed anymore and Qt has poor support for that.

 Fixes printing on pages with form widgets.

BUG: 197402
BUG: 214352
------------------------------------------------------------------------
r1095343 | ggarand | 2010-02-24 02:17:49 +0000 (Wed, 24 Feb 2010) | 2 lines

automatically merged revision 1088982:
don't allow any synchronous update of scrollbars during layout
------------------------------------------------------------------------
r1095357 | scripty | 2010-02-24 04:24:43 +0000 (Wed, 24 Feb 2010) | 1 line

SVN_SILENT made messages (.desktop file)
------------------------------------------------------------------------
r1095389 | aseigo | 2010-02-24 07:45:11 +0000 (Wed, 24 Feb 2010) | 2 lines

compile

------------------------------------------------------------------------
r1095482 | aseigo | 2010-02-24 11:56:47 +0000 (Wed, 24 Feb 2010) | 3 lines

since we can't do a hit test, only accept the mouse event if text selection is turned on; when Qt is fixed, we can get rid of this


------------------------------------------------------------------------
r1095564 | trueg | 2010-02-24 14:46:01 +0000 (Wed, 24 Feb 2010) | 2 lines

Backport: Fixed regex filter: * is only needed for bif:contains
CCMAIL: nlecureuil@mandriva.com
------------------------------------------------------------------------
r1095610 | fdekruijf | 2010-02-24 17:03:50 +0000 (Wed, 24 Feb 2010) | 1 line

change in email address
------------------------------------------------------------------------
r1095725 | mikearthur | 2010-02-24 22:39:43 +0000 (Wed, 24 Feb 2010) | 2 lines

Change include to fix OSX compilation error.

------------------------------------------------------------------------
r1095777 | dfaure | 2010-02-25 00:50:24 +0000 (Thu, 25 Feb 2010) | 6 lines

Fix bug found by discussing with pinotree about #225907: deleted() wasn't emitted anymore.
Added unittest for that, and checked that dirty() isn't emitted (due to my other recent
changes to KDirWatch), so at least deletion of the watched file is handled correctly now.
Fixed for: 4.4.1
CCBUG: 225907

------------------------------------------------------------------------
r1095883 | scripty | 2010-02-25 04:16:13 +0000 (Thu, 25 Feb 2010) | 1 line

SVN_SILENT made messages (.desktop file)
------------------------------------------------------------------------
r1095892 | orlovich | 2010-02-25 05:09:49 +0000 (Thu, 25 Feb 2010) | 4 lines

Tweak how we match wildcard ad filters to fix a major performance problem 
matching some very long URLs reported by maelcum


------------------------------------------------------------------------
r1095973 | trueg | 2010-02-25 11:27:39 +0000 (Thu, 25 Feb 2010) | 4 lines

Backport: no wildcard unless we have more than 3 chars.

CCMAIL: nlecureuil@mandriva.com

------------------------------------------------------------------------
r1096006 | dfaure | 2010-02-25 13:34:49 +0000 (Thu, 25 Feb 2010) | 4 lines

Fix crash when closing a window (via javascript, i.e. self-destruct) that has a JSError statusbar label.
Fixed for: 4.4.1
BUG: 228255

------------------------------------------------------------------------
r1096035 | trueg | 2010-02-25 15:39:41 +0000 (Thu, 25 Feb 2010) | 4 lines

Backport: determine all URIs before deleting to make sure we are not left with zombie Resources.

CCMAIL: nlecureuil@mandriva.com

------------------------------------------------------------------------
r1096076 | dfaure | 2010-02-25 18:33:59 +0000 (Thu, 25 Feb 2010) | 4 lines

Don't show an icon button if the icon cannot be changed (directory or .desktop file not writable).
KDE-3.1 bug from 2003, fixed for 4.4.1 in 2010, it's never too late ;)
BUG: 56857

------------------------------------------------------------------------
r1096316 | dfaure | 2010-02-26 13:41:56 +0000 (Fri, 26 Feb 2010) | 5 lines

Backport: Add missing connection which made the "change link target" feature non-working unless
something else in the dialog was changed too.
Fixed for: 4.4.1 (just in time ;)
CCBUG: 228325

------------------------------------------------------------------------
r1096420 | gkiagia | 2010-02-26 16:43:55 +0000 (Fri, 26 Feb 2010) | 3 lines

Backport of r1095642. Catch SIGBUS in KCrash.
(The original commit has wrong commit message, sorry)

------------------------------------------------------------------------
r1096435 | gkiagia | 2010-02-26 17:09:15 +0000 (Fri, 26 Feb 2010) | 6 lines

Backport of r1096432.
Fix bug: When drkonqi has been launched directly, if another child
process of the crashed process exits (i.e. not drkonqi), waitpid()
returns -1 and _exit() is called while it shouldn't. This change
makes sure that we call _exit() only when drkonqi exits.

------------------------------------------------------------------------
r1096444 | sengels | 2010-02-26 17:23:44 +0000 (Fri, 26 Feb 2010) | 2 lines

backport r1096439
CCBUG: 218922
------------------------------------------------------------------------
r1096479 | mueller | 2010-02-26 18:25:09 +0000 (Fri, 26 Feb 2010) | 2 lines

KDE 4.4.1 versioning

------------------------------------------------------------------------
